/* XPM */
static char * icon64_xpm[] = {
"64 64 1460 2",
"  	c #FFFFFF",
". 	c #FFFFFE",
"+ 	c #FEFDFD",
"@ 	c #FCFDFA",
"# 	c #FAFBFC",
"$ 	c #F8F9F9",
"% 	c #F8F9FA",
"& 	c #F8F9FB",
"* 	c #F9F9FB",
"= 	c #F8FAFA",
"- 	c #F7FAF9",
"; 	c #F7F8FA",
"> 	c #F7F9F9",
", 	c #F8F8F8",
"' 	c #FAFAFA",
") 	c #FCFCF9",
"! 	c #FCFCFA",
"~ 	c #FEFFFE",
"{ 	c #E6E7F1",
"] 	c #AFAED7",
"^ 	c #8584C4",
"/ 	c #7E7CC2",
"( 	c #7C7AC2",
"_ 	c #7B79C2",
": 	c #7977C4",
"< 	c #7976C5",
"[ 	c #7575C5",
"} 	c #7373C5",
"| 	c #7172C5",
"1 	c #6F71C4",
"2 	c #6E6EC6",
"3 	c #6C6DC4",
"4 	c #6B6BC4",
"5 	c #6B6BC5",
"6 	c #6F6FC4",
"7 	c #9697D3",
"8 	c #D9DAEB",
"9 	c #FEFEFE",
"0 	c #FDFDFB",
"a 	c #CDCFE4",
"b 	c #7474BC",
"c 	c #7A79C7",
"d 	c #9B9CD8",
"e 	c #A3A5DB",
"f 	c #A1A2D8",
"g 	c #9F9FD8",
"h 	c #9A9DDB",
"i 	c #9799DC",
"j 	c #9597DA",
"k 	c #9294DB",
"l 	c #8F90DA",
"m 	c #8C8DDB",
"n 	c #8B8CDB",
"o 	c #8888DC",
"p 	c #8686DB",
"q 	c #8382DB",
"r 	c #7C7FDA",
"s 	c #7779D9",
"t 	c #5B5CC4",
"u 	c #4E4EBE",
"v 	c #AEACDB",
"w 	c #FAFBFA",
"x 	c #FEFFFF",
"y 	c #E1E3EE",
"z 	c #7270BF",
"A 	c #9493D1",
"B 	c #D2D2F6",
"C 	c #D3D4FB",
"D 	c #CFD0FB",
"E 	c #CCCCFD",
"F 	c #C8C7FE",
"G 	c #C4C5FD",
"H 	c #C1C2FE",
"I 	c #BDBDFD",
"J 	c #BAB9FE",
"K 	c #B6B5FC",
"L 	c #B3B2FD",
"M 	c #ADAEFD",
"N 	c #AAAAFE",
"O 	c #A5A6FC",
"P 	c #A2A2FD",
"Q 	c #9DA1FC",
"R 	c #9A9CFC",
"S 	c #9495FA",
"T 	c #6E6DDB",
"U 	c #4849BF",
"V 	c #CAC9E3",
"W 	c #FFFEFD",
"X 	c #FFFEFF",
"Y 	c #FCFEFD",
"Z 	c #9C9ECD",
"` 	c #7B7AC5",
" .	c #D0CEFB",
"..	c #D9D7FC",
"+.	c #DEE0FC",
"@.	c #D2D4FD",
"#.	c #C7C8FF",
"$.	c #C0C0FF",
"%.	c #BCBDFD",
"&.	c #B9B9FE",
"*.	c #B6B6FE",
"=.	c #B3B2FF",
"-.	c #ADAEFE",
";.	c #AAABFF",
">.	c #A7A7FF",
",.	c #A4A3FF",
"'.	c #A09FFD",
").	c #9D9BFE",
"!.	c #9698FD",
"~.	c #9395FE",
"{.	c #9191FE",
"].	c #8D8DFE",
"^.	c #5959CE",
"/.	c #6867C4",
"(.	c #FAFAF7",
"_.	c #F6F8F8",
":.	c #7170C4",
"<.	c #9D9EDC",
"[.	c #CDCCFA",
"}.	c #E6E7FD",
"|.	c #DEDFFE",
"1.	c #D0D2FE",
"2.	c #C2C3FF",
"3.	c #BBBAFE",
"4.	c #B5B5FE",
"5.	c #B2B1FF",
"6.	c #AFAEFE",
"7.	c #ACAAFE",
"8.	c #A6A6FE",
"9.	c #A3A2FE",
"0.	c #9F9FFE",
"a.	c #9C9BFE",
"b.	c #9997FE",
"c.	c #9594FF",
"d.	c #8F90FE",
"e.	c #8C8DFF",
"f.	c #8A89FF",
"g.	c #8685FF",
"h.	c #706FE9",
"i.	c #3C3BBF",
"j.	c #E4E5F2",
"k.	c #FEFEFD",
"l.	c #FEFFFD",
"m.	c #F4F5F8",
"n.	c #6363C0",
"o.	c #A2A3E2",
"p.	c #C8C8FD",
"q.	c #E6E6FD",
"r.	c #DCDAFF",
"s.	c #CCCCFE",
"t.	c #BDBDFE",
"u.	c #B3B2FE",
"v.	c #AEAEFE",
"w.	c #AAAAFF",
"x.	c #A7A7FD",
"y.	c #A4A4FE",
"z.	c #9091FE",
"A.	c #8889FE",
"B.	c #8586FF",
"C.	c #8382FF",
"D.	c #807FFF",
"E.	c #6E6EEF",
"F.	c #3939BF",
"G.	c #D9DAEE",
"H.	c #F3F5F7",
"I.	c #5E5EBF",
"J.	c #9D9EE3",
"K.	c #C2C1FC",
"L.	c #E4E4FD",
"M.	c #D7D6FF",
"N.	c #C6C6FE",
"O.	c #ABAAFF",
"P.	c #A7A6FE",
"Q.	c #9FA0FE",
"R.	c #9C9CFF",
"S.	c #9897FE",
"T.	c #8989FF",
"U.	c #8182FE",
"V.	c #7E7EFF",
"W.	c #7B7AFE",
"X.	c #7877FE",
"Y.	c #6867EE",
"Z.	c #3635BF",
"`.	c #D8D9ED",
" +	c #F4F6F7",
".+	c #5959BF",
"++	c #9799E3",
"@+	c #B9BAFC",
"#+	c #E3E2FE",
"$+	c #D2D2FF",
"%+	c #C0C1FE",
"&+	c #AEB0FF",
"*+	c #A3A2FF",
"=+	c #9799FE",
"-+	c #9495FF",
";+	c #8D8DFF",
">+	c #8585FF",
",+	c #8282FF",
"'+	c #7F7EFF",
")+	c #7A7AFE",
"!+	c #7777FE",
"~+	c #7473FD",
"{+	c #716FFE",
"]+	c #6361EE",
"^+	c #3432C0",
"/+	c #D8D8EE",
"(+	c #5655BD",
"_+	c #9292E3",
":+	c #B3B3FC",
"<+	c #E0DEFE",
"[+	c #CECDFF",
"}+	c #BBBBFE",
"|+	c #A7A9FE",
"1+	c #9C9BFF",
"2+	c #9898FD",
"3+	c #8989FE",
"4+	c #8181FE",
"5+	c #7373FF",
"6+	c #706FFF",
"7+	c #6D6BFE",
"8+	c #6A68FE",
"9+	c #5A5AED",
"0+	c #2E2EBE",
"a+	c #D7D8EE",
"b+	c #F4F5F9",
"c+	c #5251BC",
"d+	c #8C8CE3",
"e+	c #ADACFC",
"f+	c #DDDBFD",
"g+	c #CAC9FF",
"h+	c #B6B5FE",
"i+	c #A0A2FE",
"j+	c #9495FE",
"k+	c #7B7BFE",
"l+	c #7574FC",
"m+	c #6A6BFD",
"n+	c #5D5CFD",
"o+	c #5554FD",
"p+	c #5251FE",
"q+	c #5352FD",
"r+	c #5252FB",
"s+	c #4A4CED",
"t+	c #2A2BC0",
"u+	c #D7D8ED",
"v+	c #F3F5F8",
"w+	c #4F4EBE",
"x+	c #8586E3",
"y+	c #A6A6FC",
"z+	c #D9D8FC",
"A+	c #C6C5FF",
"B+	c #B0B0FE",
"C+	c #999CFF",
"D+	c #8C8DFE",
"E+	c #7C7BFF",
"F+	c #7776FC",
"G+	c #6D6EFD",
"H+	c #5956FD",
"I+	c #5050FE",
"J+	c #4D4EFE",
"K+	c #4A4BFD",
"L+	c #4848FD",
"M+	c #4544FA",
"N+	c #4342FA",
"O+	c #3A39EA",
"P+	c #1D1DBF",
"Q+	c #D7D6EC",
"R+	c #FDFEF9",
"S+	c #FFFFFD",
"T+	c #FDFEFE",
"U+	c #FEFEFF",
"V+	c #F3F4F7",
"W+	c #4C4ABE",
"X+	c #7E80E3",
"Y+	c #9FA0FB",
"Z+	c #D6D6FC",
"`+	c #9395FF",
" @	c #7A7AFF",
".@	c #7776FF",
"+@	c #7173FE",
"@@	c #6565FD",
"#@	c #5151FE",
"$@	c #4D4DFE",
"%@	c #4B4CFE",
"&@	c #4849FF",
"*@	c #4545FD",
"=@	c #4343FD",
"-@	c #4747F6",
";@	c #6E73DE",
">@	c #8687C1",
",@	c #85879B",
"'@	c #CBC9BC",
")@	c #E1E1BF",
"!@	c #E2E2C2",
"~@	c #E2E2C1",
"{@	c #E2E1C1",
"]@	c #E2E1C2",
"^@	c #E2E2C0",
"/@	c #E7E7CA",
"(@	c #F5F6E8",
"_@	c #FDFDF9",
":@	c #FDFDFE",
"<@	c #F3F5F5",
"[@	c #4746BE",
"}@	c #7879E3",
"|@	c #9899FD",
"1@	c #D2D4FB",
"2@	c #BDBEFE",
"3@	c #A5A6FE",
"4@	c #7F7FFE",
"5@	c #7B7BFD",
"6@	c #7573FE",
"7@	c #7070FF",
"8@	c #5C5FFB",
"9@	c #4C4DFB",
"0@	c #4A4AFB",
"a@	c #4848FE",
"b@	c #4546FE",
"c@	c #4343FF",
"d@	c #3F42F8",
"e@	c #6E6EE1",
"f@	c #B0B591",
"g@	c #BFBF71",
"h@	c #BFC06D",
"i@	c #C1C070",
"j@	c #C1C16F",
"k@	c #C0BF6B",
"l@	c #BFC06B",
"m@	c #BFC068",
"n@	c #C0BF65",
"o@	c #C0BF63",
"p@	c #C0BF62",
"q@	c #C0C05F",
"r@	c #C0C05C",
"s@	c #C0C05B",
"t@	c #BFBF59",
"u@	c #C0C158",
"v@	c #C0C155",
"w@	c #BEBE50",
"x@	c #C0C058",
"y@	c #DAD9AA",
"z@	c #FBFBF5",
"A@	c #F2F4F5",
"B@	c #3634BC",
"C@	c #7171E6",
"D@	c #CFD1FC",
"E@	c #B8BAFD",
"F@	c #A0A1FE",
"G@	c #8486FE",
"H@	c #7170FF",
"I@	c #6C6AFE",
"J@	c #5859FB",
"K@	c #4B4CFD",
"L@	c #4949FF",
"M@	c #4342FE",
"N@	c #4041FD",
"O@	c #3C3DFD",
"P@	c #6B6CE4",
"Q@	c #BCBE7A",
"R@	c #C7C981",
"S@	c #E9E9B4",
"T@	c #F8F6C8",
"U@	c #F9F8C9",
"V@	c #F9F9C5",
"W@	c #F9F9C2",
"X@	c #F9F9C0",
"Y@	c #F9F9BC",
"Z@	c #F9F9B8",
"`@	c #F9F9B5",
" #	c #F9F9B2",
".#	c #F9F9AF",
"+#	c #FAF9AB",
"@#	c #FAF9A6",
"##	c #F9F9A1",
"$#	c #F9F99F",
"%#	c #F8F89A",
"&#	c #F3F292",
"*#	c #DADA71",
"=#	c #C1C04B",
"-#	c #D2D297",
";#	c #FDFDFD",
">#	c #FDFFFE",
",#	c #FDFEFF",
"'#	c #FCFEFC",
")#	c #F2F3F6",
"!#	c #2B2DBD",
"~#	c #5958E4",
"{#	c #8483FE",
"]#	c #CECEFD",
"^#	c #B4B5FD",
"/#	c #9A9BFE",
"(#	c #7E7FFD",
"_#	c #7270FD",
":#	c #6C6CFD",
"<#	c #6765FD",
"[#	c #5354FD",
"}#	c #494AFE",
"|#	c #4445FD",
"1#	c #4242FF",
"2#	c #3E3DFE",
"3#	c #3C3AFD",
"4#	c #3F3DF9",
"5#	c #B1B28C",
"6#	c #C7C67C",
"7#	c #F7F8CB",
"8#	c #FEFDD8",
"9#	c #FFFFD6",
"0#	c #FEFFCE",
"a#	c #FEFFC6",
"b#	c #FEFEC1",
"c#	c #FEFEBF",
"d#	c #FEFEBC",
"e#	c #FEFEB8",
"f#	c #FEFEB3",
"g#	c #FDFEAF",
"h#	c #FEFFAC",
"i#	c #FFFFA9",
"j#	c #FFFFA6",
"k#	c #FFFFA2",
"l#	c #FFFE9F",
"m#	c #FFFE9B",
"n#	c #FFFD97",
"o#	c #FEFD93",
"p#	c #E4E274",
"q#	c #C0BF45",
"r#	c #E8E7D0",
"s#	c #FFFEFE",
"t#	c #FDFBFA",
"u#	c #F3EBEB",
"v#	c #F1E6E4",
"w#	c #F0E5E4",
"x#	c #F0E5E3",
"y#	c #F0E4E3",
"z#	c #EFE5E2",
"A#	c #EEE4E1",
"B#	c #E4DADE",
"C#	c #2B2AC0",
"D#	c #4E4DE5",
"E#	c #6A6AFC",
"F#	c #C3C5FC",
"G#	c #ADAFFC",
"H#	c #9394FE",
"I#	c #7579FC",
"J#	c #6465FD",
"K#	c #5A5BFB",
"L#	c #4D4CFC",
"M#	c #4747FE",
"N#	c #4443FF",
"O#	c #3D3DFE",
"P#	c #3B3BFD",
"Q#	c #3938FE",
"R#	c #3234F8",
"S#	c #6A6AE0",
"T#	c #C2BF6D",
"U#	c #E7E9B1",
"V#	c #FEFDD2",
"W#	c #FFFDE2",
"X#	c #FFFEDB",
"Y#	c #FFFFCF",
"Z#	c #FFFFC2",
"`#	c #FFFFBA",
" $	c #FFFFB8",
".$	c #FFFFB4",
"+$	c #FEFFB0",
"@$	c #FDFFAC",
"#$	c #FDFFA8",
"$$	c #FEFFA4",
"%$	c #FFFFA0",
"&$	c #FFFF9D",
"*$	c #FFFF99",
"=$	c #FFFF97",
"-$	c #FFFF93",
";$	c #FFFF90",
">$	c #FFFF8B",
",$	c #FCFC86",
"'$	c #CACB4F",
")$	c #CDCF87",
"!$	c #FDFCFA",
"~$	c #E8D7D4",
"{$	c #C78E90",
"]$	c #C17072",
"^$	c #C06D6C",
"/$	c #BF6C6B",
"($	c #BF6A6A",
"_$	c #BF6869",
":$	c #BF6666",
"<$	c #BF6464",
"[$	c #BF6362",
"}$	c #C06061",
"|$	c #C05E61",
"1$	c #C15D61",
"2$	c #B35668",
"3$	c #2D2FC1",
"4$	c #4848E4",
"5$	c #6465FC",
"6$	c #BDC0FC",
"7$	c #9EA0FC",
"8$	c #7E7DFD",
"9$	c #5A5CFB",
"0$	c #4546FD",
"a$	c #4242FE",
"b$	c #3E3DFF",
"c$	c #3B3BFE",
"d$	c #3838FF",
"e$	c #3536FE",
"f$	c #3232FF",
"g$	c #3032FC",
"h$	c #8184CD",
"i$	c #BDBD64",
"j$	c #F7F7BF",
"k$	c #FFFED4",
"l$	c #FFFEE5",
"m$	c #FFFED7",
"n$	c #FFFEC8",
"o$	c #FFFEBA",
"p$	c #FDFEB2",
"q$	c #FEFEB0",
"r$	c #FFFEA9",
"s$	c #FFFFA5",
"t$	c #FEFFA2",
"u$	c #FFFE9E",
"v$	c #FFFE9A",
"w$	c #FFFE97",
"x$	c #FFFE93",
"y$	c #FFFE90",
"z$	c #FFFF8C",
"A$	c #FFFF89",
"B$	c #FFFF85",
"C$	c #FEFE80",
"D$	c #D8D85B",
"E$	c #C6C660",
"F$	c #FDFCF7",
"G$	c #DDC1C1",
"H$	c #C1716F",
"I$	c #CB8988",
"J$	c #E5B4B5",
"K$	c #ECBCBA",
"L$	c #ECBAB8",
"M$	c #EDB6B6",
"N$	c #EDB3B3",
"O$	c #EDB0AF",
"P$	c #ECACAB",
"Q$	c #EBA8A7",
"R$	c #ECA5A5",
"S$	c #ECA2A2",
"T$	c #EC9F9F",
"U$	c #E1969E",
"V$	c #2228BE",
"W$	c #4544E4",
"X$	c #6060FD",
"Y$	c #B9BBFC",
"Z$	c #9B9DFD",
"`$	c #7A78FF",
" %	c #5556FD",
".%	c #4040FD",
"+%	c #3837FE",
"@%	c #3635FE",
"#%	c #3332FF",
"$%	c #3030FF",
"%%	c #2D2CFF",
"&%	c #2A2CFC",
"*%	c #8486CB",
"=%	c #BDBE62",
"-%	c #F8F8B8",
";%	c #FFFED1",
">%	c #FFFEE2",
",%	c #FFFED3",
"'%	c #FFFFC3",
")%	c #FEFFB4",
"!%	c #FFFFA1",
"~%	c #FEFF98",
"{%	c #FFFF96",
"]%	c #FFFF88",
"^%	c #FFFF84",
"/%	c #FFFF81",
"(%	c #FFFF7D",
"_%	c #FFFF7A",
":%	c #DADA58",
"<%	c #C5C45E",
"[%	c #FDFDF7",
"}%	c #FCFDFE",
"|%	c #EEE1DF",
"1%	c #BD706E",
"2%	c #D79D99",
"3%	c #FDD4D2",
"4%	c #FDD4D7",
"5%	c #FECFD1",
"6%	c #FDCBCA",
"7%	c #FEC8C7",
"8%	c #FEC3C3",
"9%	c #FDBFC0",
"0%	c #FEBCBD",
"a%	c #FEB9BA",
"b%	c #FEB5B6",
"c%	c #FEB1B2",
"d%	c #FEACAE",
"e%	c #F4A4AE",
"f%	c #1D24BF",
"g%	c #3F40E3",
"h%	c #5A5AFD",
"i%	c #B8BAFC",
"j%	c #989AFC",
"k%	c #7475FE",
"l%	c #5151FC",
"m%	c #3837FF",
"n%	c #2F2FFE",
"o%	c #2A2AFE",
"p%	c #2826FF",
"q%	c #2625FD",
"r%	c #8585CA",
"s%	c #BFBE5E",
"t%	c #F8F8B1",
"u%	c #FFFECA",
"v%	c #FFFEDF",
"w%	c #FFFECF",
"x%	c #FFFEBE",
"y%	c #FFFEAD",
"z%	c #FFFEA6",
"A%	c #FFFFA3",
"B%	c #FFFE98",
"C%	c #FFFF94",
"D%	c #FEFF79",
"E%	c #FEFF75",
"F%	c #FEFF71",
"G%	c #D9DB53",
"H%	c #C4C459",
"I%	c #FBFDFE",
"J%	c #D5A7A7",
"K%	c #C67877",
"L%	c #F9CDCD",
"M%	c #FDDBDB",
"N%	c #FEE4E4",
"O%	c #FED7D7",
"P%	c #FDC8C8",
"Q%	c #FFC0C1",
"R%	c #FFBCBD",
"S%	c #FEB8B8",
"T%	c #FFB5B5",
"U%	c #FFB1B1",
"V%	c #FFADAD",
"W%	c #FFA9A9",
"X%	c #FEA6A8",
"Y%	c #F49EA4",
"Z%	c #2528BF",
"`%	c #3637DB",
" &	c #5251FB",
".&	c #B4B6FB",
"+&	c #9496FD",
"@&	c #7071FE",
"#&	c #4C4CFC",
"$&	c #3937FD",
"%&	c #2D2DFF",
"&&	c #2726FE",
"*&	c #2524FD",
"=&	c #2320FF",
"-&	c #211FFD",
";&	c #8382C9",
">&	c #BFBF5A",
",&	c #F8F9AC",
"'&	c #FEFFC5",
")&	c #FFFEB8",
"!&	c #FFFFA4",
"~&	c #FEFF9B",
"{&	c #FEFF80",
"]&	c #FEFF7B",
"^&	c #FEFF78",
"/&	c #FEFF73",
"(&	c #FEFF6C",
"_&	c #FEFF6B",
":&	c #D9DB4E",
"<&	c #C4C457",
"[&	c #FDFCF8",
"}&	c #FCFBFB",
"|&	c #C68281",
"1&	c #D59293",
"2&	c #FCCBCB",
"3&	c #FDE7E7",
"4&	c #FDDFDE",
"5&	c #FED3D2",
"6&	c #FEC3C2",
"7&	c #FDB4B6",
"8&	c #FEADAE",
"9&	c #FEAAAA",
"0&	c #FEA6A6",
"a&	c #FEA2A2",
"b&	c #FE9FA2",
"c&	c #FA9B96",
"d&	c #6747BB",
"e&	c #2A2BCB",
"f&	c #403FF8",
"g&	c #8688FB",
"h&	c #9192FC",
"i&	c #6E6EFD",
"j&	c #4241FC",
"k&	c #3331FB",
"l&	c #2C2CFF",
"m&	c #2524FE",
"n&	c #2321FF",
"o&	c #1E20FE",
"p&	c #1C1CFF",
"q&	c #1A1AFA",
"r&	c #8283C9",
"s&	c #BEBF57",
"t&	c #F9F9A3",
"u&	c #FFFEC0",
"v&	c #FFFEDA",
"w&	c #FFFFC5",
"x&	c #FEFDB1",
"y&	c #FFFF82",
"z&	c #FEFE7C",
"A&	c #FFFF7B",
"B&	c #FDFE74",
"C&	c #FAFA6C",
"D&	c #F9F866",
"E&	c #FAF962",
"F&	c #FAFB62",
"G&	c #FDFD60",
"H&	c #DBDA49",
"I&	c #C5C654",
"J&	c #FCFCF6",
"K&	c #FBF9F9",
"L&	c #C67979",
"M&	c #DA9697",
"N&	c #FAC3C5",
"O&	c #FDE4E5",
"P&	c #FEDCDC",
"Q&	c #FECECE",
"R&	c #FEBDBD",
"S&	c #FFB2B1",
"T&	c #FFA5A5",
"U&	c #FFA2A2",
"V&	c #FF9E9F",
"W&	c #FF9A9C",
"X&	c #FE979A",
"Y&	c #FC9394",
"Z&	c #C173A4",
"`&	c #1C1DC2",
" *	c #2E30E0",
".*	c #3937FA",
"+*	c #4747F9",
"@*	c #3D3DFB",
"#*	c #302FFC",
"$*	c #2F2CFF",
"%*	c #2220FE",
"&*	c #201EFD",
"**	c #1E1BFE",
"=*	c #191AFD",
"-*	c #1716FF",
";*	c #1514F9",
">*	c #7F81C8",
",*	c #BEC053",
"'*	c #F9F99E",
")*	c #FFFEBC",
"!*	c #FFFED6",
"~*	c #FEFFC0",
"{*	c #FEFEAC",
"]*	c #FFFF95",
"^*	c #FFFF8F",
"/*	c #FCFD72",
"(*	c #F6F562",
"_*	c #F1F055",
":*	c #F0EF51",
"<*	c #EFF04D",
"[*	c #EEF047",
"}*	c #EFF147",
"|*	c #D2D238",
"1*	c #C0C151",
"2*	c #FDFCF6",
"3*	c #FBFAF9",
"4*	c #C77571",
"5*	c #DA9191",
"6*	c #FEBBBB",
"7*	c #FDE2E2",
"8*	c #FCD9D7",
"9*	c #FFC8C7",
"0*	c #FFB5B6",
"a*	c #FFAAAB",
"b*	c #FEA5A6",
"c*	c #FE9E9E",
"d*	c #FF9B9B",
"e*	c #FE9797",
"f*	c #FD9394",
"g*	c #FD9090",
"h*	c #FD8C8D",
"i*	c #FA888C",
"j*	c #9453AC",
"k*	c #1E1ABD",
"l*	c #2021D0",
"m*	c #2728E4",
"n*	c #2828EB",
"o*	c #2625ED",
"p*	c #2423EC",
"q*	c #2120ED",
"r*	c #201EED",
"s*	c #1B1BED",
"t*	c #1919ED",
"u*	c #1716EC",
"v*	c #1515EB",
"w*	c #1211EC",
"x*	c #110FEB",
"y*	c #0E0CEC",
"z*	c #8083B9",
"A*	c #BFBE51",
"B*	c #F9F898",
"C*	c #FFFEB9",
"D*	c #FEFED0",
"E*	c #FFFEBD",
"F*	c #FFFDA6",
"G*	c #FEFF89",
"H*	c #FEFE79",
"I*	c #FDFE75",
"J*	c #FBFA6C",
"K*	c #F1F057",
"L*	c #F0EE4F",
"M*	c #F0EE4B",
"N*	c #EFEE49",
"O*	c #EFEE46",
"P*	c #EFEF44",
"Q*	c #EFEF41",
"R*	c #EFEF3E",
"S*	c #D0D131",
"T*	c #BCBD4B",
"U*	c #FBFCF7",
"V*	c #C5736F",
"W*	c #D98A8C",
"X*	c #FCDEDE",
"Y*	c #FCD4D3",
"Z*	c #FFC3C4",
"`*	c #FFAFB1",
" =	c #FFA3A2",
".=	c #FF9E9D",
"+=	c #FF9A99",
"@=	c #FF9697",
"#=	c #FF9396",
"$=	c #FE8F90",
"%=	c #FE8C8B",
"&=	c #FF8888",
"*=	c #FF8584",
"==	c #FD817F",
"-=	c #F97B84",
";=	c #B85D9D",
">=	c #5228BC",
",=	c #1C16BE",
"'=	c #1112C0",
")=	c #1112C1",
"!=	c #1010BF",
"~=	c #0F0FBE",
"{=	c #0D0CBC",
"]=	c #0A0BBF",
"^=	c #090ABE",
"/=	c #0708BE",
"(=	c #0607BD",
"_=	c #0405BC",
":=	c #0304BB",
"<=	c #0303BE",
"[=	c #80839D",
"}=	c #BFBF4C",
"|=	c #F9F893",
"1=	c #FFFEB5",
"2=	c #FEFFCC",
"3=	c #FFFFB9",
"4=	c #FFFEA0",
"5=	c #FEFF77",
"6=	c #FEFF74",
"7=	c #F8F967",
"8=	c #EEF04F",
"9=	c #EEEE4A",
"0=	c #F0EF47",
"a=	c #EFEE45",
"b=	c #EFEF42",
"c=	c #EFEF40",
"d=	c #EFF03D",
"e=	c #EFEF3A",
"f=	c #D0D22E",
"g=	c #FBFBF7",
"h=	c #FAF9F9",
"i=	c #C56F6D",
"j=	c #DA8685",
"k=	c #FCDEDC",
"l=	c #FED1CF",
"m=	c #FEBDBB",
"n=	c #FEA8A8",
"o=	c #FD9C9B",
"p=	c #FD9796",
"q=	c #FD9491",
"r=	c #FD908F",
"s=	c #FE8C8C",
"t=	c #FD8888",
"u=	c #FD8483",
"v=	c #FE8181",
"w=	c #FF7C7D",
"x=	c #FD7A7C",
"y=	c #FE7575",
"z=	c #FD6E6F",
"A=	c #FB686E",
"B=	c #E55F7E",
"C=	c #E15885",
"D=	c #D9527E",
"E=	c #A82B67",
"F=	c #C8ADBF",
"G=	c #DEDFEC",
"H=	c #E0E1F0",
"I=	c #DFE1F0",
"J=	c #DFDFED",
"K=	c #CFD0BC",
"L=	c #BDBC45",
"M=	c #F7F687",
"N=	c #FEFECB",
"O=	c #FFFFB5",
"P=	c #FEFF9A",
"Q=	c #FEFF83",
"R=	c #FFFE7A",
"S=	c #FEFE71",
"T=	c #FFFD6C",
"U=	c #FAF961",
"V=	c #F1EF4E",
"W=	c #F0EE4A",
"X=	c #EFEE44",
"Y=	c #EFEE3F",
"Z=	c #EFEE3B",
"`=	c #EFEE3A",
" -	c #EFEF37",
".-	c #EFEE32",
"+-	c #D1D026",
"@-	c #BEBC4B",
"#-	c #FCFBF7",
"$-	c #F9F9F9",
"%-	c #C46D6B",
"&-	c #D98080",
"*-	c #FDA6A8",
"=-	c #FCD9D9",
"--	c #FECCCB",
";-	c #FEA2A3",
">-	c #FF9496",
",-	c #FE8F91",
"'-	c #FF8181",
")-	c #FE7C7E",
"!-	c #FD7B7A",
"~-	c #FD7171",
"{-	c #FD6265",
"]-	c #FC5757",
"^-	c #FC5150",
"/-	c #FE4E4C",
"(-	c #FD4A4C",
"_-	c #FC4A49",
":-	c #F44A4B",
"<-	c #BE282A",
"[-	c #E2C6BE",
"}-	c #FBFAFC",
"|-	c #FDFEFC",
"1-	c #FCFEFB",
"2-	c #E1E0C3",
"3-	c #B7B836",
"4-	c #F3F37A",
"5-	c #FEFFC7",
"6-	c #FFFFB1",
"7-	c #FEFF94",
"8-	c #FFFF72",
"9-	c #FEFE6A",
"0-	c #F7F75C",
"a-	c #EEEE48",
"b-	c #F1F147",
"c-	c #EFEE43",
"d-	c #EFEF3B",
"e-	c #EFEF36",
"f-	c #EFF032",
"g-	c #EFEF2E",
"h-	c #D0D122",
"i-	c #FBF9F8",
"j-	c #C66A69",
"k-	c #DA7A78",
"l-	c #FE9D9E",
"m-	c #FCD8D7",
"n-	c #FDC8C6",
"o-	c #FFB4B4",
"p-	c #FE9B9A",
"q-	c #FF8E8D",
"r-	c #FE8989",
"s-	c #FF8685",
"t-	c #FE7D7D",
"u-	c #FF7978",
"v-	c #FE7573",
"w-	c #FD6968",
"x-	c #FC5555",
"y-	c #FE5050",
"z-	c #FF4D4E",
"A-	c #FF4A4A",
"B-	c #FF4848",
"C-	c #FE4544",
"D-	c #FF4141",
"E-	c #F63D3C",
"F-	c #BF1F20",
"G-	c #E6C5C2",
"H-	c #E2E3C5",
"I-	c #B6B632",
"J-	c #E9EA5D",
"K-	c #F6F79D",
"L-	c #FEFDC3",
"M-	c #FEFEAB",
"N-	c #FEFE90",
"O-	c #FFFF77",
"P-	c #FDFD69",
"Q-	c #FAFC62",
"R-	c #F4F454",
"S-	c #F1F048",
"T-	c #EFEE3E",
"U-	c #EFEE3C",
"V-	c #EEEF33",
"W-	c #EEEF2F",
"X-	c #EFF02A",
"Y-	c #EEEF27",
"Z-	c #CFD020",
"`-	c #BEBD49",
" ;	c #FCFBF6",
".;	c #FAF9F8",
"+;	c #C56867",
"@;	c #D87473",
"#;	c #FE9699",
"$;	c #FCD4D4",
"%;	c #FDC3C3",
"&;	c #FFAFB0",
"*;	c #FF9595",
"=;	c #FF7D7F",
"-;	c #FF797B",
";;	c #FF7577",
">;	c #FE7274",
",;	c #FC6160",
"';	c #FD5050",
");	c #FF4F4E",
"!;	c #FD4949",
"~;	c #FF4748",
"{;	c #FE4546",
"];	c #FF4244",
"^;	c #FE3F40",
"/;	c #FF3C3D",
"(;	c #F63838",
"_;	c #BF1A1C",
":;	c #E5C5C2",
"<;	c #B6B72E",
"[;	c #E9EA58",
"};	c #F3F492",
"|;	c #F8F8B4",
"1;	c #F8F99D",
"2;	c #F8F97F",
"3;	c #F6F863",
"4;	c #F4F453",
"5;	c #F0F048",
"6;	c #EFEF3F",
"7;	c #EFEF3D",
"8;	c #EFEF35",
"9;	c #EEF02A",
"0;	c #EFF029",
"a;	c #EFF026",
"b;	c #EEEF22",
"c;	c #CFD01B",
"d;	c #C56462",
"e;	c #DA6E6D",
"f;	c #FE8E8D",
"g;	c #FCD3D3",
"h;	c #FDC1C0",
"i;	c #FFA9A8",
"j;	c #FF8E8C",
"k;	c #FE807E",
"l;	c #FE7A7A",
"m;	c #FF7676",
"n;	c #FF7273",
"o;	c #FF6C6B",
"p;	c #FE5E5C",
"q;	c #FE4A4A",
"r;	c #FE3F3F",
"s;	c #FF3C3E",
"t;	c #FE3A3A",
"u;	c #FF3737",
"v;	c #F63232",
"w;	c #BF191A",
"x;	c #E2E3C4",
"y;	c #B4B52A",
"z;	c #E8E952",
"A;	c #F4F38E",
"B;	c #F7F7B1",
"C;	c #F6F693",
"D;	c #F2F26E",
"E;	c #F1F050",
"F;	c #EFEF2D",
"G;	c #EFF02B",
"H;	c #EEEF28",
"I;	c #EEEF25",
"J;	c #EEF023",
"K;	c #EEF020",
"L;	c #EFEF1B",
"M;	c #CFCF16",
"N;	c #FAF8F6",
"O;	c #C45856",
"P;	c #D96260",
"Q;	c #FE8684",
"R;	c #FBCFCF",
"S;	c #FFA3A3",
"T;	c #FF8788",
"U;	c #FF7779",
"V;	c #FE7273",
"W;	c #FF6F6F",
"X;	c #FF6969",
"Y;	c #FE5858",
"Z;	c #FE4849",
"`;	c #FF4847",
" >	c #FD4544",
".>	c #FF4243",
"+>	c #FE3A3B",
"@>	c #FF3739",
"#>	c #FE3535",
"$>	c #FF3232",
"%>	c #F62D2E",
"&>	c #BF1516",
"*>	c #B5B627",
"=>	c #E9EA4E",
"->	c #F4F48A",
";>	c #F7F8AE",
">>	c #F5F68F",
",>	c #F2F36A",
"'>	c #F0F14B",
")>	c #EEF029",
"!>	c #EFEF24",
"~>	c #EEF01F",
"{>	c #EEF11B",
"]>	c #EFF016",
"^>	c #D0D013",
"/>	c #BDBD4A",
"(>	c #FAF9F7",
"_>	c #C55753",
":>	c #DB4C4C",
"<>	c #FE6B6F",
"[>	c #FCCCCA",
"}>	c #FEB7B7",
"|>	c #FE8081",
"1>	c #FF7070",
"2>	c #FE6B6B",
"3>	c #FE6364",
"4>	c #FD5151",
"5>	c #FE4444",
"6>	c #FE4241",
"7>	c #FF3837",
"8>	c #FE3534",
"9>	c #FE3231",
"0>	c #FD2F2D",
"a>	c #FE2C2B",
"b>	c #F72828",
"c>	c #C01314",
"d>	c #FDFDFA",
"e>	c #E3E3C4",
"f>	c #B7B424",
"g>	c #E8E749",
"h>	c #F2F484",
"i>	c #F8F8AE",
"j>	c #F4F68B",
"k>	c #F1F366",
"l>	c #F0F146",
"m>	c #EFEF34",
"n>	c #EEEF32",
"o>	c #EFEF2B",
"p>	c #EFEF1E",
"q>	c #F0EF1B",
"r>	c #F0EF19",
"s>	c #F0F016",
"t>	c #EEEF10",
"u>	c #CFCF11",
"v>	c #BEBD53",
"w>	c #C45551",
"x>	c #DA4545",
"y>	c #FD5959",
"z>	c #FCBEBC",
"A>	c #FDACAA",
"B>	c #FE9393",
"C>	c #FE7576",
"D>	c #FD605F",
"E>	c #FD5352",
"F>	c #FD4848",
"G>	c #FE4545",
"H>	c #FE4243",
"I>	c #FE3E3F",
"J>	c #FE3C3D",
"K>	c #FD2E2E",
"L>	c #FE2B2C",
"M>	c #FD2929",
"N>	c #FE2727",
"O>	c #F62324",
"P>	c #C00F11",
"Q>	c #E5C4C2",
"R>	c #FEFEFC",
"S>	c #EBEBD8",
"T>	c #B8B622",
"U>	c #E0DF3F",
"V>	c #EFF268",
"W>	c #F9F9A6",
"X>	c #F5F687",
"Y>	c #F1F260",
"Z>	c #F0F13F",
"`>	c #EFEF32",
" ,	c #EFEF2F",
".,	c #EEEF2C",
"+,	c #EFEF23",
"@,	c #EFEF20",
"#,	c #EFF01F",
"$,	c #EFF01C",
"%,	c #EFEF19",
"&,	c #F0EF16",
"*,	c #F0F014",
"=,	c #F0EF11",
"-,	c #EFF011",
";,	c #C5C508",
">,	c #C4C46C",
",,	c #FDFDFC",
"',	c #C4544E",
"),	c #DA4241",
"!,	c #FE5455",
"~,	c #FCBCB9",
"{,	c #FEA3A2",
"],	c #FD8280",
"^,	c #FE6060",
"/,	c #FE4645",
"(,	c #FE3C3E",
"_,	c #FE2F2E",
":,	c #FF2929",
"<,	c #FF2628",
"[,	c #FE2323",
"},	c #FF2021",
"|,	c #F61D1D",
"1,	c #BF0C0E",
"2,	c #E6C4C2",
"3,	c #FAF9F6",
"4,	c #BCBE4A",
"5,	c #C9C72D",
"6,	c #ECEE3D",
"7,	c #F1F166",
"8,	c #F3F271",
"9,	c #F1F051",
"0,	c #EFF132",
"a,	c #EFF02E",
"b,	c #EFEF28",
"c,	c #EEF021",
"d,	c #EFEF14",
"e,	c #EFEF11",
"f,	c #F0EF10",
"g,	c #EFEE09",
"h,	c #E1E30A",
"i,	c #B6B705",
"j,	c #DCDDAF",
"k,	c #F9F9F8",
"l,	c #C4534E",
"m,	c #DA3E3E",
"n,	c #FE4F50",
"o,	c #FCB9B7",
"p,	c #FEA09F",
"q,	c #FD7D7D",
"r,	c #FE5B5B",
"s,	c #FE4343",
"t,	c #FE4040",
"u,	c #FE3C3C",
"v,	c #FE3738",
"w,	c #FE3435",
"x,	c #FE3232",
"y,	c #FE2E2F",
"z,	c #FE2B2B",
"A,	c #FE2626",
"B,	c #FE2424",
"C,	c #FF2122",
"D,	c #FE1E1E",
"E,	c #FF1B1C",
"F,	c #F51818",
"G,	c #C00A0C",
"H,	c #E3E1BD",
"I,	c #B7B81F",
"J,	c #CBCA28",
"K,	c #EAE932",
"L,	c #EEEF30",
"M,	c #F0F12D",
"N,	c #EFF12C",
"O,	c #EFF027",
"P,	c #EFF023",
"Q,	c #EEF01E",
"R,	c #EEF01C",
"S,	c #EFF019",
"T,	c #F0F015",
"U,	c #F0F012",
"V,	c #EFF00F",
"W,	c #EFF00C",
"X,	c #EDEE07",
"Y,	c #DFDE07",
"Z,	c #BCBC04",
"`,	c #C1C258",
" '	c #FAF9F0",
".'	c #FEFEF9",
"+'	c #C5534F",
"@'	c #DA393A",
"#'	c #FE4848",
"$'	c #FDB6B3",
"%'	c #FD9D9B",
"&'	c #FE5454",
"*'	c #FD3D3E",
"='	c #FE3B3B",
"-'	c #FE3837",
";'	c #FE3130",
">'	c #FE2F2F",
",'	c #FE2C2D",
"''	c #FF292A",
")'	c #FF2627",
"!'	c #FE2324",
"~'	c #FE1E1D",
"{'	c #FF1B1A",
"]'	c #FE1919",
"^'	c #FF1617",
"/'	c #F51312",
"('	c #C0090A",
"_'	c #FDFCF9",
":'	c #E0DFB4",
"<'	c #B8B72C",
"['	c #B8B91C",
"}'	c #BFBE1B",
"|'	c #C3C31A",
"1'	c #C2C316",
"2'	c #C3C317",
"3'	c #C5C317",
"4'	c #C5C315",
"5'	c #C5C412",
"6'	c #C4C310",
"7'	c #C4C30F",
"8'	c #C3C40D",
"9'	c #C2C50C",
"0'	c #C4C40A",
"a'	c #C6C309",
"b'	c #C6C406",
"c'	c #C4C204",
"d'	c #BCBE03",
"e'	c #B7B705",
"f'	c #C5C468",
"g'	c #F2F2E3",
"h'	c #C76662",
"i'	c #D63132",
"j'	c #FD4346",
"k'	c #FAAAA7",
"l'	c #FD9A9A",
"m'	c #FD7677",
"n'	c #FF504F",
"o'	c #FE3938",
"p'	c #FE2C2C",
"q'	c #FE292A",
"r'	c #FE2627",
"s'	c #FF2121",
"t'	c #FF1616",
"u'	c #FE1415",
"v'	c #FD1010",
"w'	c #F10E0C",
"x'	c #C00506",
"y'	c #E8CBC9",
"z'	c #FBFCFC",
"A'	c #F4F3EA",
"B'	c #DCDCB3",
"C'	c #CBCE88",
"D'	c #CACD7F",
"E'	c #CACB81",
"F'	c #CACB80",
"G'	c #CACB7F",
"H'	c #CBCB81",
"I'	c #CBCC83",
"J'	c #CACB83",
"K'	c #CBCB83",
"L'	c #CBCB80",
"M'	c #CBCB7F",
"N'	c #D3D496",
"O'	c #E5E6C7",
"P'	c #FBFBFC",
"Q'	c #D9A4A0",
"R'	c #C32422",
"S'	c #F53D3E",
"T'	c #FB5E5F",
"U'	c #FA8A89",
"V'	c #FD6E6E",
"W'	c #FD423D",
"X'	c #FF3332",
"Y'	c #FD1313",
"Z'	c #FE1010",
"`'	c #FE0E0E",
" )	c #FD0A0A",
".)	c #D90609",
"+)	c #BE2929",
"@)	c #F6EFED",
"#)	c #FEFEFB",
"$)	c #FDFEFA",
"%)	c #FDFEFB",
"&)	c #FDFEFD",
"*)	c #F6E9E7",
"=)	c #C4423A",
"-)	c #CC2624",
";)	c #F33634",
">)	c #FC3434",
",)	c #FD3130",
"')	c #FE302F",
"))	c #FE2425",
"!)	c #FE2222",
"~)	c #FE1E1F",
"{)	c #FF1B1B",
"])	c #FE1717",
"^)	c #FD1414",
"/)	c #FE1112",
"()	c #FD0E0F",
"_)	c #FD0A0B",
":)	c #FB0907",
"<)	c #DF0505",
"[)	c #C00303",
"})	c #DCA6A2",
"|)	c #E9D5CF",
"1)	c #C3413D",
"2)	c #C1191A",
"3)	c #D22121",
"4)	c #DC2223",
"5)	c #DC2121",
"6)	c #DC1F20",
"7)	c #DC1D1E",
"8)	c #DC1A1A",
"9)	c #DC1919",
"0)	c #DB1717",
"a)	c #DB1515",
"b)	c #DC1212",
"c)	c #DC0F10",
"d)	c #DC0D0F",
"e)	c #DC0A0B",
"f)	c #DB0808",
"g)	c #DA0707",
"h)	c #D80405",
"i)	c #CA0404",
"j)	c #BE0505",
"k)	c #D28D86",
"l)	c #F5F4F4",
"m)	c #F6EAE7",
"n)	c #D9A19B",
"o)	c #C95E5A",
"p)	c #C44444",
"q)	c #C34343",
"r)	c #C44242",
"s)	c #C44241",
"t)	c #C34141",
"u)	c #C54142",
"v)	c #C24141",
"w)	c #C44141",
"x)	c #C34040",
"y)	c #C33F3F",
"z)	c #C3423F",
"A)	c #C24F4A",
"B)	c #CE7C77",
"C)	c #E6C7C2",
"D)	c #FCFEFE",
"E)	c #FCFBFC",
"F)	c #FBF8F7",
"G)	c #FAF7F7",
"H)	c #FBF7F8",
"I)	c #FAF7F8",
"J)	c #FBF8F8",
"K)	c #FAF8F9",
"L)	c #F9FCFC",
"M)	c #FFFDFE",
"N)	c #FDFFFF",
"O)	c #FEFDFF",
"                                                                                                                                ",
"                                                                                                                                ",
"                                                                                                                                ",
"                                                                                                                                ",
"                                                                                                                                ",
"                                                                                                                                ",
"                                                                                                                                ",
"                                                                                                                                ",
"                                                                                                                                ",
"                                                                                                                                ",
"                                                  . .                                                                           ",
"                                          + @ # $ % & * * = - & & & ; > > , ' ) !                                               ",
"                                      . ~ { ] ^ / ( _ : < [ } | 1 2 3 4 4 5 6 7 8 9 .                                           ",
"                                      0 a b c d e f g h i j k l m n o p q r s t u v w                                           ",
"                                    x y z A B C D E F G H I J K L M N O P Q R S T U V W .                                       ",
"                                  X Y Z `  ...+.@.#.$.%.&.*.=.-.;.>.,.'.).!.~.{.].^./.(.9                                       ",
"                                  9 _.:.<.[.}.|.1.2.3.4.5.6.7.8.9.0.a.b.c.d.e.f.g.h.i.j.k.                                      ",
"                                  l.m.n.o.p.q.r.s.t.u.v.w.x.y.'.).!.~.z.].A.B.C.D.E.F.G.9                                       ",
"                                  l.H.I.J.K.L.M.N.*.O.P.9.Q.R.S.c.d.e.T.g.U.V.W.X.Y.Z.`..                                       ",
"                                  ~  +.+++@+#+$+%+&+*+'.).=+-+z.;+A.>+,+'+)+!+~+{+]+^+/+~                                       ",
"                                  l.m.(+_+:+<+[+}+|+1+2+c.z.;+3+g.4+'+W.X.5+6+7+8+9+0+a+k.                                      ",
"                                  l.b+c+d+e+f+g+h+i+j+z.;+A.>+,+'+k+l+m+n+o+p+q+r+s+t+u+W                                       ",
"                                  l.v+w+x+y+z+A+B+C+D+3+g.U.V.E+F+G+H+I+J+K+L+M+N+O+P+Q+R+W W W 9 x ~ l.l.S+~ ~ k.T+9 U+        ",
"                                  ~ V+W+X+Y+Z+H N `+>+,+'+ @.@+@@@#@$@%@&@*@=@-@;@>@,@'@)@!@!@~@~@{@{@]@{@{@^@^@/@(@_@:@        ",
"                                  . <@[@}@|@1@2@3@D+4@5@X.6@7@8@9@0@a@b@c@d@e@f@g@h@i@j@k@l@m@n@o@p@q@r@s@t@u@v@w@x@y@z@9       ",
"                                  9 A@B@C@{.D@E@F@G@X.~+H@I@J@K@L@*@M@N@O@P@Q@R@S@T@U@V@W@X@Y@Z@`@ #.#+#@###$#%#&#*#=#-#! ;#    ",
"            :@;#>#T+,#T+T+T+9 9 T+'#)#!#~#{#]#^#/#(#_#:#<#[#}#|#1#N@2#3#4#5#6#7#8#9#0#a#b#c#d#e#f#g#h#i#j#k#l#m#n#o#p#q#r#Y     ",
"          s#t#u#v#w#x#y#y#x#x#x#z#A#B#C#D#E#F#G#H#I#J#K#L#M#N#N@O#P#Q#R#S#T#U#V#W#X#Y#Z#`# $.$+$@$#$$$%$&$*$=$-$;$>$,$'$)$!$    ",
"        w ~${$]$^$/$($_$:$<$[$}$|$1$2$3$4$5$6$7$8$9$a@0$a$N@b$c$d$e$f$g$h$i$j$k$l$m$n$o$p$q$h#r$s$t$u$v$w$x$y$z$A$B$C$D$E$F$    ",
"      9 G$H$I$J$K$L$M$N$O$P$Q$R$S$T$U$V$W$X$Y$Z$`$ %M@.%O#P#+%@%#%$%%%&%*%=%-%;%>%,%'%)%@$#$$$!%&$~%{%-$;$>$]%^%/%(%_%:%<%[%    ",
"    }%|%1%2%3%4%5%6%7%8%9%0%a%b%c%d%e%f%g%h%i%j%k%l%2#c$m%e$f$n%%%o%p%q%r%s%t%u%v%w%x%y%z%A%l#m#B%C%;$z$A$B$/%(%D%E%F%G%H%F$    ",
"    I%J%K%L%M%N%O%P%Q%R%S%T%U%V%W%X%Y%Z%`% &.&+&@&#&$&@%#%$%%&o%&&*&=&-&;&>&,&'&X#u%)&!&&$~&=$-$;$z$]%^%{&]&^&/&F%(&_&:&<&[&    ",
"    }&|&1&2&3&4&5&6&a%7&c%8&9&0&a&b&c&d&e&f&g&h&i&j&k&n%l&o%p%m&n&o&p&q&r&s&t&u&v&w&x&u$w$C%;$z$A$B$y&z&A&B&C&D&E&F&G&H&I&J&    ",
"    K&L&M&N&O&P&Q&R&S&V%W%T&U&V&W&X&Y&Z&`& *.*+*@*#*$*o%&&*&%*&***=*-*;*>*,*'*)*!*~*{*]*^*z$]%^%{&]&^&/*(*_*:*<*[*}*[*|*1*2*    ",
"    3*4*5*6*7*8*9*0*a*b*a&c*d*e*f*g*h*i*j*k*l*m*n*o*p*q*r*s*t*u*v*w*x*y*z*A*B*C*D*E*F*y$G*B$/%(%H*I*J*K*L*M*N*O*P*Q*R*S*T*U*    ",
"    K&V*W*b%X*Y*Z*`* =.=+=@=#=$=%=&=*===-=;=>=,='=)=!=~={=]=^=/=(=_=:=<=[=}=|=1=2=3=4=]%{&]&5=/&6=7=8=<*9=0=a=b=c=d=e=f=T*g=    ",
"    h=i=j=d%k=l=m=n=o=p=q=r=s=t=u=v=w=x=y=z=A=B=C=D=E=F=G=H=I=I=I=I=I=J=K=L=M=y%N=O=P=Q=R=E%S=T=U=V=W=O*X=Q*Y=Z=`= -.-+-@-#-    ",
"    $-%-&-*-=---S%;->-,-s=&=*='-)-!-~-{-]-^-/-(-_-:-<-[-}-'#|-|-|-|-1-3*2-3-4-r$5-6-7-]&8-(&9-0-a-b-c-b=c=d=d- -e-f-g-h-@-#-    ",
"    i-j-k-l-m-n-o-p-q-r-s-v=t-u-v-w-x-y-z-A-B-C-D-E-F-G-'#.         . |-H-I-J-K-L-M-N-O-P-Q-R-S-P*Q*T-U-`= -V-W-g-X-Y-Z-`- ;    ",
"    .;+;@;#;$;%;&;*;s-'-=;-;;;>;,;';);!;~;{;];^;/;(;_;:;'#.         . |-H-<;[;};|;1;2;3;4;5;P*b=6;7;e= -8;f-W-9;0;a;b;c;`- ;    ",
"    $-d;e;f;g;h;i;j;k;l;m;n;o;p;y-q;B-C-D-r;s;t;u;v;w;:;'#.           ;#x;y;z;A;B;C;D;E;X=b=R*U-e= -V-W-F;G;H;I;J;K;L;M;`-#-    ",
"    N;O;P;Q;R;0%S;T;U;V;W;X;Y;Z;`; >.>^;/;+>@>#>$>%>&>:;'#.         . ;#H-*>=>->;>>>,>'>Y=7;e= -8;f-W-9;)>a;!>K;~>{>]>^>/> ;    ",
"    (>_>:><>[>}>.=|>1>2>3>4>B-5>6>r;s;t;7>8>9>0>a>b>c>:;'#.           d>e>f>g>h>i>j>k>l>`= -m>n>g-o>H;I;J;K;p>q>r>s>t>u>v> ;    ",
"    (>w>x>y>z>A>B>C>D>E>F>G>H>I>J>+>@>#>$>K>L>M>N>O>P>Q>'#.           R>S>T>U>V>W>X>Y>Z>8;`> ,.,)>a;+,@,#,$,%,&,*,=,-,;,>,,,    ",
"    (>',),!,~,{,],^,B-/,6>r;(,t;7>8>9>_,a>:,<,[,},|,1,2,'#.           9 3,4,5,6,7,8,9,0,a,o>b,I;J;c,p>q>r>s>d,e,f,g,h,i,j,;#    ",
"    k,l,m,n,o,p,q,r,s,t,u,t;v,w,x,y,z,M>A,B,C,D,E,F,G,Q>'#.             k.H,I,J,K,L,M,N,0;O,P,K;Q,R,S,&,T,U,V,W,X,Y,Z,`, '.'    ",
"    (>+'@'#'$'%'l;&'*'='-'8>;'>',''')'!'},~'{']'^'/'('2,'#.             U+_':'<'['}'|'1'2'3'4'5'6'7'8'9'0'a'b'c'd'e'f'g'x       ",
"    ' h'i'j'k'l'm'n'o'#>x,>'p'q'r'B,s'D,E,]'t'u'v'w'x'y'z'x               R>0 A'B'C'D'E'F'G'H'I'I'J'K'K'K'K'L'M'N'O'z@|-        ",
"    P'Q'R'S'T'U'V'W'X'>','q'N>B,},~'{']'^'Y'Z'`' ).)+)@):@                      9 #)$)$)%)|-|-&)&)&)&)|-|-|-0 %),,. .           ",
"    Y *)=)-);)>),)'),'q'r'))!)~){)]'])^)/)()_):)<)[)}),#U+                      . s#9 x x ~ l.R>R>R>k.~ ~ ~ ~ ~ k..             ",
"        |)1)2)3)4)5)6)7)8)9)0)a)b)c)d)e)f)g)h)i)j)k)l)x                                                                         ",
"        :@m)n)o)p)q)r)s)t)t)u)t)v)t)w)x)y)z)A)B)C)w D)                                                                          ",
"          U+E)= F)G)H)H)H)H)I)H)J)J)J)J)J)I)K)L)z's#                                                                            ",
"            M)9 N)x U+U+U+x N)N)N)N)N)N)N)U+X O)X                                                                               ",
"                                                                                                                                ",
"                                                                                                                                ",
"                                                                                                                                ",
"                                                                                                                                ",
"                                                                                                                                ",
"                                                                                                                                ",
"                                                                                                                                ",
"                                                                                                                                ",
"                                                                                                                                ",
"                                                                                                                                "};
