/* XPM */
static char * align_center_xpm[] = {
"24 24 52 1",
" 	c None",
".	c #4C4465",
"+	c #B86920",
"@	c #FFFFDE",
"#	c #FFFFD3",
"$	c #FFFFC9",
"%	c #FFFFC1",
"&	c #FFFBC0",
"*	c #FFF9C0",
"=	c #FFFFD0",
"-	c #FFFF19",
";	c #FFFB02",
">	c #FFF300",
",	c #FFE200",
"'	c #FFD900",
")	c #FFFDC0",
"!	c #FFEE00",
"~	c #FFE500",
"{	c #FFDC00",
"]	c #FFCB00",
"^	c #FFC200",
"/	c #FFFAC0",
"(	c #FFDA00",
"_	c #FFD100",
":	c #FFC000",
"<	c #FAB100",
"[	c #1B6CD0",
"}	c #ECF7FF",
"|	c #EAF5FF",
"1	c #E7F4FF",
"2	c #E4F2FF",
"3	c #E0F0FF",
"4	c #DDEDFF",
"5	c #D9EBFF",
"6	c #D6E9FF",
"7	c #166CD4",
"8	c #A9D7FF",
"9	c #9FD0FF",
"0	c #93C9FF",
"a	c #83C0FF",
"b	c #74B6FF",
"c	c #64ADFF",
"d	c #59A6FF",
"e	c #206DCC",
"f	c #2D79D4",
"g	c #2A78D4",
"h	c #2876D4",
"i	c #2574D4",
"j	c #2172D4",
"k	c #1D70D4",
"l	c #196DD4",
"m	c #065DC9",
"                        ",
"           ..           ",
"           ..           ",
"           ..           ",
"       ++++++++++       ",
"       +@@#$%&*++       ",
"       +==-;>,'++       ",
"       +))!~{]^++       ",
"       +//,(_:<++       ",
"       +//,(_:<++       ",
"       ++++++++++       ",
"           ..           ",
"     [[[[[[[[[[[[[[     ",
"     [}|11234556667     ",
"     [}8990abccddd7     ",
"     [}8990abccddd7     ",
"     [}8990abccddd7     ",
"     [}8990abccddd7     ",
"     [}8990abccddd7     ",
"     [}8990abccddd7     ",
"     efghhijkll777m     ",
"           ..           ",
"           ..           ",
"                        "};
