/* XPM */
static char * data_view_list_column_xpm[] = {
"24 24 7 1",
" 	c None",
".	c #3E9ADE",
"+	c #858585",
"@	c #2C2C2C",
"#	c #FF3300",
"$	c #FFFFFF",
"%	c #B8B8B8",
"                        ",
"    ...............     ",
"    ...............     ",
"    ..++@++@#######     ",
"    ..+@+@@+#######     ",
"    ..+$$$$$#$$$$$#     ",
"    ..+$$$$$#$$$$$#     ",
"    ..+$$$$$#$$$$$#     ",
"    ..+%%%%%#######     ",
"    ..+$$$$$#$$$$$#     ",
"    ..+$$$$$#$$$$$#     ",
"    ..+$$$$$#$$$$$#     ",
"    ..+%%%%%#######     ",
"    ..+$$$$$#$$$$$#     ",
"    ..+$$$$$#$$$$$#     ",
"    ..+$$$$$#$$$$$#     ",
"    ..+%%%%%#######     ",
"    ..+$$$$$#$$$$$#     ",
"    ..+$$$$$#$$$$$#     ",
"    ..+$$$$$#$$$$$#     ",
"    ..+%%%%%#######     ",
"    ..+$$$$$#$$$$$#     ",
"    ..+$$$$$#$$$$$#     ",
"                        "};
