/* XPM */
static char * font_picker_xpm[] = {
"24 24 107 2",
"  	c None",
". 	c #FEFEFE",
"+ 	c #FDFDFD",
"@ 	c #FCFCFC",
"# 	c #FCFCFB",
"$ 	c #FBFBFA",
"% 	c #FAFAFA",
"& 	c #D0DEEB",
"* 	c #B8CDE4",
"= 	c #F8F8F8",
"- 	c #F8F8F7",
"; 	c #F7F7F6",
"> 	c #F6F6F6",
", 	c #F6F6F5",
"' 	c #8F918C",
") 	c #FBFBFB",
"! 	c #F6F7F8",
"~ 	c #84ABD4",
"{ 	c #9AB9DA",
"] 	c #F5F5F4",
"^ 	c #FDFDFC",
"/ 	c #FAFAF9",
"( 	c #B9CEE4",
"_ 	c #719ECE",
": 	c #80A6D0",
"< 	c #F4F4F3",
"[ 	c #F9F9F9",
"} 	c #EBF0F3",
"| 	c #93B4D7",
"1 	c #77A0CE",
"2 	c #6795C6",
"3 	c #F1F3F3",
"4 	c #F9F9F8",
"5 	c #A2BFDD",
"6 	c #D6E1EC",
"7 	c #8AADD2",
"8 	c #6290C4",
"9 	c #D9E1EA",
"0 	c #F4F4F2",
"a 	c #F3F3F2",
"b 	c #DBE4EE",
"c 	c #9BB9DA",
"d 	c #A0BBD8",
"e 	c #5D8CC0",
"f 	c #BCCDDF",
"g 	c #F2F2F1",
"h 	c #F7F8F7",
"i 	c #8FB1D6",
"j 	c #E5EBF0",
"k 	c #B9CBDF",
"l 	c #5887BD",
"m 	c #9FB7D5",
"n 	c #F2F2F0",
"o 	c #C3D4E6",
"p 	c #ACC3DD",
"q 	c #D1DCE7",
"r 	c #5483BA",
"s 	c #82A2C8",
"t 	c #668EB0",
"u 	c #F0F2F4",
"v 	c #76A0CD",
"w 	c #AEC4DC",
"x 	c #B2C6DD",
"y 	c #B0C4DB",
"z 	c #A5BCD6",
"A 	c #4F7EB6",
"B 	c #9CB7CF",
"C 	c #EBF2F9",
"D 	c #ABC3DD",
"E 	c #A8C0DC",
"F 	c #C5D4E4",
"G 	c #C4D3E3",
"H 	c #C1D0E0",
"I 	c #BFCEDF",
"J 	c #C3D9EE",
"K 	c #E2E9EF",
"L 	c #7BA1CC",
"M 	c #F2F3F3",
"N 	c #F5F5F3",
"O 	c #AECCE8",
"P 	c #F5F6F6",
"Q 	c #87AAD0",
"R 	c #BBCDE0",
"S 	c #F3F3F1",
"T 	c #BBCDE2",
"U 	c #6793C5",
"V 	c #F2F3F2",
"W 	c #DCE9F5",
"X 	c #96BCE1",
"Y 	c #71A5D6",
"Z 	c #BDCFE1",
"` 	c #6490C3",
" .	c #5E8BBF",
"..	c #ABC1D9",
"+.	c #EDEEEF",
"@.	c #EAECED",
"#.	c #96B3CD",
"$.	c #F1F1F0",
"%.	c #F1F1EF",
"&.	c #B7B6AC",
"*.	c #BA945C",
"=.	c #F0F0EE",
"-.	c #EFEFED",
";.	c #D6BD9A",
">.	c #FFFFFF",
",.	c #F9E9D0",
"'.	c #888A85",
"                                                ",
"  . . + + @ # $ % & * = - ; > , . '             ",
"  . + + @ ) $ % ! ~ { - ; , , ] . '             ",
"  + ^ @ ) $ % / ( _ : ; , , ] < . '             ",
"  ^ @ ) $ % [ } | 1 2 3 , ] < < . '             ",
"  @ ) $ % [ 4 5 6 7 8 9 ] < 0 a . '             ",
"  ) $ / [ 4 b c ; d e f < 0 a g . '             ",
"  $ / [ 4 h i j , k l m 0 a g n . '             ",
"  / [ 4 - o p , ] q r s t t t t . '             ",
"  [ 4 - u v w x y z A t B C C B t '             ",
"  = - ; D E F G H I t B C J J C B t             ",
"  - ; K L M N < a t B C J O O J C B t           ",
"  ; P Q R N < a S t C J O O O O J C t           ",
"  , T U V < a S n t W X Y Y Y Y X W t           ",
"  Z `  ...+.S n @.t #.W X Y Y X W #.t           ",
"  ] < 0 a g n $.%.&.t #.W X X W #.t *.          ",
"  < 0 a g n $.%.=.-.&.t #.W W #.t *.;.*.        ",
"  >.>.>.>.>.>.>.>.>.>.&.t t t t *.;.,.;.*.      ",
"  '.'.'.'.'.'.'.'.'.'.'.&.&.&.&.&.*.;.,.;.*.    ",
"                                  &.*.;.,.;.*.  ",
"                                    &.*.;.*.&.  ",
"                                      &.*.&.    ",
"                                        &.      ",
"                                                "};
