/* XPM */
static char * grid_bag_sizer_xpm[] = {
"24 24 5 1",
" 	c None",
".	c #0000FF",
"+	c #4949FF",
"@	c #9B9BFF",
"#	c #FCFCFC",
"                        ",
"                        ",
"   .................    ",
"  .+@@@@@@+.+@@@@@@+.   ",
"  .@######@.@######@.   ",
"  .@######@.@######@.   ",
"  .@######@.+@@@@@@+.   ",
"  .@######@..........   ",
"  .@######@.+@@@@@@+.   ",
"  .@######@.@######@.   ",
"  .+@@@@@@+.@######@.   ",
"  ..........@######@.   ",
"  .+@@@@@@+.@######@.   ",
"  .@######@.@######@.   ",
"  .@######@.+@@@@@@+.   ",
"  .@######@..........   ",
"  .@######@.+@@@@@@+.   ",
"  .@######@.@######@.   ",
"  .@######@.@######@.   ",
"  .+@@@@@@+.+@@@@@@+.   ",
"   .................    ",
"                        ",
"                        ",
"                        "};
