/* XPM */
static char * property_grid_xpm[] = {
"24 24 6 1",
" 	c None",
".	c #000000",
"+	c #858585",
"@	c #2C2C2C",
"#	c #FFFFFF",
"$	c #B8B8B8",
"                        ",
" ...................... ",
" ...................... ",
" ..++@++@+++++++++++++. ",
" ..+@+@@++++++++++++++. ",
" ..++########$########. ",
" ..++########$########. ",
" ..++$$$$$$$$$$$$$$$$$. ",
" ..++########$########. ",
" ..++########$########. ",
" ..++$$$$$$$$$$$$$$$$$. ",
" ..++########$########. ",
" ..++########$########. ",
" ..++@++@+++++++++++++. ",
" ..+@+@@++++++++++++++. ",
" ..++########$########. ",
" ..++########$########. ",
" ..++$$$$$$$$$$$$$$$$$. ",
" ..++########$########. ",
" ..++########$########. ",
" ..++$$$$$$$$$$$$$$$$$. ",
" ..++########$########. ",
" ...................... ",
"                        "};
