/* XPM */
static char * properties_text2_xpm[] = {
"169 29 588 2",
"  	c None",
". 	c #F8EFE5",
"+ 	c #F2DECB",
"@ 	c #EBCEB0",
"# 	c #EACBAC",
"$ 	c #EED6BD",
"% 	c #F5E6D8",
"& 	c #FCF8F4",
"* 	c #FFFFFF",
"= 	c #F1DDCA",
"- 	c #E6C29D",
"; 	c #E4B684",
"> 	c #DFAE7B",
", 	c #DBA975",
"' 	c #D8A672",
") 	c #DEAE7A",
"! 	c #E4B581",
"~ 	c #E3B480",
"{ 	c #E1B17D",
"] 	c #DEAD7A",
"^ 	c #DFAE7A",
"/ 	c #DFAF7B",
"( 	c #E0B07C",
"_ 	c #E4BA8F",
": 	c #E8CAAC",
"< 	c #F5E7DA",
"[ 	c #E8CAAD",
"} 	c #E0B280",
"| 	c #F5CE9B",
"1 	c #E8BE8B",
"2 	c #D9AA77",
"3 	c #CFA06D",
"4 	c #E5BB88",
"5 	c #FAD5A2",
"6 	c #F8D39F",
"7 	c #EFC693",
"8 	c #E6BB88",
"9 	c #E7BD8A",
"0 	c #EAC08D",
"a 	c #EDC390",
"b 	c #F0C693",
"c 	c #E6BA88",
"d 	c #DAAB7C",
"e 	c #E7C8AA",
"f 	c #F3E5D7",
"g 	c #DDDDDD",
"h 	c #E9D6C2",
"i 	c #DCB994",
"j 	c #E2B785",
"k 	c #DAAD79",
"l 	c #D7A976",
"m 	c #E2B885",
"n 	c #E0B582",
"o 	c #E1B784",
"p 	c #F6D19E",
"q 	c #F2CA97",
"r 	c #E7BC89",
"s 	c #E1B481",
"t 	c #E2B582",
"u 	c #E6B986",
"v 	c #EABF8C",
"w 	c #E7BA87",
"x 	c #E0B17E",
"y 	c #DCB287",
"z 	c #E9D0B7",
"A 	c #D9D9D9",
"B 	c #999999",
"C 	c #A1A1A1",
"D 	c #B8B8B8",
"E 	c #E2E2E2",
"F 	c #000000",
"G 	c #FAFDFF",
"H 	c #F3F9FE",
"I 	c #EBF5FD",
"J 	c #E9F4FD",
"K 	c #E7F3FD",
"L 	c #D8DAD9",
"M 	c #CCBCA9",
"N 	c #C79B6C",
"O 	c #CD9E6B",
"P 	c #D8AC79",
"Q 	c #EDC592",
"R 	c #D9AC79",
"S 	c #CB9B68",
"T 	c #EAC18E",
"U 	c #E9BD8A",
"V 	c #DBAC79",
"W 	c #D9A976",
"X 	c #DDAD7A",
"Y 	c #E2B380",
"Z 	c #E6B884",
"` 	c #D3A06C",
" .	c #DFBF9E",
"..	c #A0A0A0",
"+.	c #040404",
"@.	c #595959",
"#.	c #E9E9E9",
"$.	c #979797",
"%.	c #444444",
"&.	c #8D8D8D",
"*.	c #E4F2FC",
"=.	c #C1E0F8",
"-.	c #96CAF3",
";.	c #8BC4F2",
">.	c #85C1F1",
",.	c #88B0CD",
"'.	c #939EA1",
").	c #AC8E6B",
"!.	c #D3AC7E",
"~.	c #CD9D6A",
"{.	c #E0B27F",
"].	c #CC9D6A",
"^.	c #DEB17E",
"/.	c #F2C996",
"(.	c #E6BA87",
"_.	c #DFB07D",
":.	c #DBAA77",
"<.	c #DFAF7C",
"[.	c #DEAE7B",
"}.	c #DAA874",
"|.	c #CA9761",
"1.	c #DBBB99",
"2.	c #777777",
"3.	c #616161",
"4.	c #2B2B2B",
"5.	c #282828",
"6.	c #717171",
"7.	c #646464",
"8.	c #666666",
"9.	c #C4E1F8",
"0.	c #99CDF4",
"a.	c #7CC2F4",
"b.	c #76C0F4",
"c.	c #74BAEB",
"d.	c #75AFD6",
"e.	c #839DA9",
"f.	c #9B9688",
"g.	c #C3A27B",
"h.	c #CAA476",
"i.	c #CCA272",
"j.	c #CF9F6C",
"k.	c #D0A06D",
"l.	c #D1A26F",
"m.	c #D09F6C",
"n.	c #D6A774",
"o.	c #DFB27F",
"p.	c #E6B885",
"q.	c #D6A674",
"r.	c #CEA06F",
"s.	c #C89866",
"t.	c #C4925E",
"u.	c #C99D70",
"v.	c #DFC6AC",
"w.	c #010101",
"x.	c #838383",
"y.	c #848484",
"z.	c #A3D0F3",
"A.	c #77BDF1",
"B.	c #7BC6F8",
"C.	c #80CBFB",
"D.	c #85C2E5",
"E.	c #89A6AF",
"F.	c #A0967F",
"G.	c #BF996D",
"H.	c #E7BC8A",
"I.	c #B89064",
"J.	c #A17B51",
"K.	c #D7AA7A",
"L.	c #C69663",
"M.	c #B88653",
"N.	c #DCAC79",
"O.	c #D2A16E",
"P.	c #C4925F",
"Q.	c #DDAE7B",
"R.	c #DAAD7B",
"S.	c #C99E6E",
"T.	c #B28B61",
"U.	c #AC8256",
"V.	c #B48456",
"W.	c #CEB090",
"X.	c #E7D8C9",
"Y.	c #383838",
"Z.	c #DFDFDF",
"`.	c #B5B5B5",
" +	c #B0B0B0",
".+	c #D2D2D2",
"++	c #B2B2B2",
"@+	c #D1D1D1",
"#+	c #D7D7D7",
"$+	c #B6B6B6",
"%+	c #EBEBEB",
"&+	c #E5E5E5",
"*+	c #ACACAC",
"=+	c #C4C4C4",
"-+	c #E0E0E0",
";+	c #B3B3B3",
">+	c #B1B1B1",
",+	c #E7E7E7",
"'+	c #BCBCBC",
")+	c #D0D0D0",
"!+	c #9ACAF1",
"~+	c #6AB3EC",
"{+	c #6CB8F1",
"]+	c #6DB9F1",
"^+	c #74A6C7",
"/+	c #837966",
"(+	c #B99973",
"_+	c #D1A778",
":+	c #B38B60",
"<+	c #907A5E",
"[+	c #7F6F5A",
"}+	c #94714A",
"|+	c #B98C5D",
"1+	c #D1A06D",
"2+	c #C08E5B",
"3+	c #CB9966",
"4+	c #D6A573",
"5+	c #BF9262",
"6+	c #A78158",
"7+	c #907555",
"8+	c #7B7569",
"9+	c #A0998E",
"0+	c #E0CEBB",
"a+	c #EEE3D8",
"b+	c #F8F3EE",
"c+	c #5E5E5E",
"d+	c #1B1B1B",
"e+	c #808080",
"f+	c #545454",
"g+	c #DEDEDE",
"h+	c #414141",
"i+	c #252525",
"j+	c #232323",
"k+	c #AFAFAF",
"l+	c #868686",
"m+	c #4E4E4E",
"n+	c #DBDBDB",
"o+	c #393939",
"p+	c #6C6C6C",
"q+	c #CBCBCB",
"r+	c #3E3E3E",
"s+	c #0F0F0F",
"t+	c #898989",
"u+	c #E1E1E1",
"v+	c #454545",
"w+	c #A6A6A6",
"x+	c #1F1F1F",
"y+	c #272727",
"z+	c #B9B9B9",
"A+	c #D8D8D8",
"B+	c #0E0E0E",
"C+	c #7E7E7E",
"D+	c #97C9F1",
"E+	c #76B8ED",
"F+	c #9ACCF3",
"G+	c #9BCCF3",
"H+	c #9CB7CA",
"I+	c #A0886C",
"J+	c #BF976B",
"K+	c #CA9E6F",
"L+	c #B08F6C",
"M+	c #A69989",
"N+	c #9F9A90",
"O+	c #9A7F62",
"P+	c #B48B61",
"Q+	c #C99764",
"R+	c #C18E5B",
"S+	c #C89663",
"T+	c #CC9D6C",
"U+	c #B48E67",
"V+	c #A3886C",
"W+	c #918779",
"X+	c #6C8697",
"Y+	c #9FB4C2",
"Z+	c #F7F4EF",
"`+	c #FDFCFB",
" @	c #515151",
".@	c #212121",
"+@	c #424242",
"@@	c #090909",
"#@	c #656565",
"$@	c #9C9C9C",
"%@	c #767676",
"&@	c #2C2C2C",
"*@	c #3B3B3B",
"=@	c #1E1E1E",
"-@	c #111111",
";@	c #686868",
">@	c #555555",
",@	c #030303",
"'@	c #080808",
")@	c #262626",
"!@	c #626262",
"~@	c #4D4D4D",
"{@	c #050505",
"]@	c #3F3F3F",
"^@	c #B4B4B4",
"/@	c #737373",
"(@	c #6D6D6D",
"_@	c #707070",
":@	c #363636",
"<@	c #AEAEAE",
"[@	c #191919",
"}@	c #1D1D1D",
"|@	c #6A6A6A",
"1@	c #565656",
"2@	c #505050",
"3@	c #98CBF3",
"4@	c #97CBF3",
"5@	c #FAFCFE",
"6@	c #FDFEFE",
"7@	c #F3EDE7",
"8@	c #DBC7B3",
"9@	c #B78F67",
"0@	c #AE8256",
"a@	c #D4BCA4",
"b@	c #EDE4DB",
"c@	c #F4F0EB",
"d@	c #DAC8B6",
"e@	c #B5916C",
"f@	c #A77441",
"g@	c #D9A673",
"h@	c #C89562",
"i@	c #AD7E50",
"j@	c #B89D83",
"k@	c #C2B7AC",
"l@	c #C0C8CE",
"m@	c #7DB7E5",
"n@	c #A6D2F4",
"o@	c #EDEDED",
"p@	c #151515",
"q@	c #4C4C4C",
"r@	c #A4A4A4",
"s@	c #101010",
"t@	c #7A7A7A",
"u@	c #C8C8C8",
"v@	c #989898",
"w@	c #CFCFCF",
"x@	c #97CAF2",
"y@	c #96C9F1",
"z@	c #FAFBFD",
"A@	c #FDFDFD",
"B@	c #F9F6F4",
"C@	c #F0E8E1",
"D@	c #E2D4C5",
"E@	c #DFCFBF",
"F@	c #F7F3F0",
"G@	c #F9F8F6",
"H@	c #EFE9E2",
"I@	c #D4C0AB",
"J@	c #BC9976",
"K@	c #B68757",
"L@	c #B69A7E",
"M@	c #C1B5A9",
"N@	c #C7C3BF",
"O@	c #7CB6E4",
"P@	c #A6D1F4",
"Q@	c #ABABAB",
"R@	c #C9C9C9",
"S@	c #222222",
"T@	c #6B6B6B",
"U@	c #C3C3C3",
"V@	c #2E2E2E",
"W@	c #323232",
"X@	c #7C7C7C",
"Y@	c #676767",
"Z@	c #96C8F1",
"`@	c #95C7EF",
" #	c #F8FAFB",
".#	c #D9EDD6",
"+#	c #D4EBD1",
"@#	c #F7F9F7",
"##	c #F0F0F0",
"$#	c #EEEEEE",
"%#	c #F1F1F1",
"&#	c #F2F2F2",
"*#	c #E7DFD7",
"=#	c #D6C3B0",
"-#	c #BA9877",
";#	c #BEA48A",
">#	c #CCC0B3",
",#	c #D4D1CE",
"'#	c #CBD3D9",
")#	c #7EB7E5",
"!#	c #A5D0F3",
"~#	c #0B0B0B",
"{#	c #333333",
"]#	c #787878",
"^#	c #2F2F2F",
"/#	c #C5C5C5",
"(#	c #020202",
"_#	c #2A2A2A",
":#	c #909090",
"<#	c #181818",
"[#	c #DADADA",
"}#	c #7B7B7B",
"|#	c #5B5B5B",
"1#	c #9D9D9D",
"2#	c #CACACA",
"3#	c #94C7EF",
"4#	c #92C5ED",
"5#	c #F6F8F9",
"6#	c #87CB7D",
"7#	c #78C56D",
"8#	c #EEF4ED",
"9#	c #D6D6D6",
"0#	c #CECECE",
"a#	c #D4D4D4",
"b#	c #DCDCDC",
"c#	c #E9E8E7",
"d#	c #F3F1EF",
"e#	c #F0ECE8",
"f#	c #F1EEEB",
"g#	c #F2F1EF",
"h#	c #F3F3F3",
"i#	c #F4F4F4",
"j#	c #E5EDF4",
"k#	c #83BCEA",
"l#	c #A3CFF1",
"m#	c #484848",
"n#	c #9F9F9F",
"o#	c #303030",
"p#	c #E8E8E8",
"q#	c #4B4B4B",
"r#	c #5C5C5C",
"s#	c #6F6F6F",
"t#	c #93C5ED",
"u#	c #90C2EB",
"v#	c #F4F6F7",
"w#	c #BEE0B9",
"x#	c #B6DCB0",
"y#	c #F0F3F0",
"z#	c #E3E3E3",
"A#	c #E6E6E6",
"B#	c #EFEFEF",
"C#	c #F5F5F5",
"D#	c #F6F6F6",
"E#	c #E7EFF6",
"F#	c #82BBE9",
"G#	c #A2CDF0",
"H#	c #535353",
"I#	c #B7B7B7",
"J#	c #474747",
"K#	c #BEBEBE",
"L#	c #A2A2A2",
"M#	c #696969",
"N#	c #92C3EC",
"O#	c #8EC0E8",
"P#	c #F2F4F5",
"Q#	c #EEE5E4",
"R#	c #EDE2E1",
"S#	c #F2F1F1",
"T#	c #EAEAEA",
"U#	c #80B9E6",
"V#	c #A1CCEE",
"W#	c #0D0D0D",
"X#	c #BABABA",
"Y#	c #ADADAD",
"Z#	c #797979",
"`#	c #313131",
" $	c #90C1EA",
".$	c #8CBDE6",
"+$	c #F0F1F3",
"@$	c #D9AFAD",
"#$	c #D5A5A3",
"$$	c #EDEAEA",
"%$	c #C7C7C7",
"&$	c #CCCCCC",
"*$	c #CDCDCD",
"=$	c #C6C6C6",
"-$	c #E2EAF1",
";$	c #7EB6E4",
">$	c #A0CAED",
",$	c #7F7F7F",
"'$	c #131313",
")$	c #969696",
"!$	c #636363",
"~$	c #8FBFE7",
"{$	c #8ABAE3",
"]$	c #EDEFF1",
"^$	c #DFC4C3",
"/$	c #DCBDBC",
"($	c #EBE9E9",
"_$	c #D3D3D3",
":$	c #D5D5D5",
"<$	c #E0E8EF",
"[$	c #7CB3E1",
"}$	c #9EC8EB",
"|$	c #BFBFBF",
"1$	c #858585",
"2$	c #8DBDE5",
"3$	c #88B7DF",
"4$	c #ECEDEF",
"5$	c #E3E7EE",
"6$	c #E0E4EC",
"7$	c #E9E9EA",
"8$	c #E4E4E4",
"9$	c #ECECEC",
"0$	c #DEE6ED",
"a$	c #79AFDD",
"b$	c #9DC6E9",
"c$	c #7D7D7D",
"d$	c #0A0A0A",
"e$	c #A3A3A3",
"f$	c #9B9B9B",
"g$	c #A9A9A9",
"h$	c #8BBAE2",
"i$	c #85B4DC",
"j$	c #EAEBED",
"k$	c #ADC5F5",
"l$	c #A3BEF4",
"m$	c #E2E4E8",
"n$	c #BDBDBD",
"o$	c #C2C2C2",
"p$	c #DCE4EB",
"q$	c #77ACDA",
"r$	c #9CC4E6",
"s$	c #8C8C8C",
"t$	c #343434",
"u$	c #404040",
"v$	c #A8A8A8",
"w$	c #949494",
"x$	c #919191",
"y$	c #727272",
"z$	c #0C0C0C",
"A$	c #161616",
"B$	c #3C3C3C",
"C$	c #8B8B8B",
"D$	c #3A3A3A",
"E$	c #6E6E6E",
"F$	c #89B8E0",
"G$	c #83B1D9",
"H$	c #E8E9EB",
"I$	c #B5C9F0",
"J$	c #ACC2EF",
"K$	c #E0E1E5",
"L$	c #C1C1C1",
"M$	c #DAE2E8",
"N$	c #74A9D7",
"O$	c #9AC2E4",
"P$	c #141414",
"Q$	c #9A9A9A",
"R$	c #373737",
"S$	c #C0C0C0",
"T$	c #1A1A1A",
"U$	c #606060",
"V$	c #87B5DE",
"W$	c #80AED7",
"X$	c #E6E7E9",
"Y$	c #D8E0E6",
"Z$	c #71A6D4",
"`$	c #98C0E3",
" %	c #84B1D9",
".%	c #7DAAD2",
"+%	c #E6E8E9",
"@%	c #6EA1CF",
"#%	c #8CB3D5",
"$%	c #E7E8E8",
"%%	c #EBECEC",
"&%	c #87AED1",
"*%	c #6E9BC4",
"=%	c #B1C5D8",
"-%	c #B2C5D7",
";%	c #B1C4D6",
">%	c #A8BFD5",
",%	c #6394C1",
"'%	c #85A6C5",
")%	c #D5D6D6",
"!%	c #DDDEDE",
"~%	c #91ABC4",
"{%	c #5280AB",
"]%	c #407BB3",
"^%	c #3F7BB4",
"/%	c #3F7BB3",
"(%	c #427BB2",
"_%	c #517DA7",
":%	c #869DB3",
"<%	c #C8C9C9",
"[%	c #D3D4D4",
"}%	c #D1DBE6",
"|%	c #B5C9DB",
"1%	c #ABC5DE",
"2%	c #AAC5DE",
"3%	c #ACC5DD",
"4%	c #B5C8D9",
"5%	c #CCD6DE",
"6%	c #ECEDED",
"7%	c #F4F5F5",
"                                                                                                                                                                                                                                                                                                                                                  ",
"                        . + @ # # # # # # # # # # # # $ % & *                                                                                                                                                                                                                                                                                     ",
"                        = - ; > , ' ) ! ~ { ] ^ / ( { _ : < &                                                                                                                                                                                                                                                                                     ",
"                        [ } | 1 2 3 4 5 6 7 8 9 0 a b c d e f                                                                                                                                                                                                         g g                                                                         ",
"                        h i j k l m n o p q r s t u v w x y z                         A B B B B B C D                                                                                                                                                               E F F                                                                         ",
"            G H I J K K L M N O P Q R S T 7 U V W X Y Z Z `  .                        ..F F F F F F F +.@.#.                                                                                                                                      $.%.&.            E F F                                                                         ",
"            *.=.-.;.>.>.,.'.).!.8 ~.l {.].^./.(._.:.<.[.}.|.1.                        ..F F 2.2.2.3.4.F F 5.                                                                                                                                      6.F 7.              8.8.                                                                        ",
"            9.0.a.b.c.d.e.f.g.h.i.j.k.l.m.n.o.p.{.q.r.s.t.u.v.                        ..F w.          x.F F y.                                                                                                                                    6.F 7.                                                                                          ",
"            z.A.B.C.D.E.F.G.H.I.J.K.L.M.N.O.P.Q.R.S.T.U.V.W.X.                        ..F w.            4.F Y.              Z.`. +          .+++++@+                        #+++$+%+                    &+D *+=+                        -+$+ +    6.F 7.                                  .+;+>+.+                  ,+=+*+'+)+                    ",
"            !+~+{+]+^+/+(+_+:+<+[+}+|+1+2+3+4+5+6+7+8+9+0+a+b+                        ..F w.            c+F d+    e+F f+g+h+F F F )+     +i+F F F F j+k+          l+F m+n+o+F F F +.p+              q+r+F F F F s+t+          l+F m+u+v+w.F F w+F F F F F F F F     E F F             ..x+F F F F y+z+          A+r+F F F F F B+C+                ",
"            D+E+F+G+H+I+J+K+L+M+N+O+P+Q+R+S+T+U+V+W+X+Y+Z+`+*                         ..F w.             @F .@    e+F +@x+@@m+#@h+@+  $@w.F 4.%@2.&@F w.B         l+F *@=@-@;@y.>@,@F  @          `.'@F )@!@2.~@{@F ;@        l+F ]@j+'@~@8.+@^@>@)@F .@>@>@>@>@    E F F           /@F w.r+(@_@:@F +.<@        [@F }@|@x./@1@-@2@                ",
"            3@4@5@6@7@8@9@0@a@b@c@d@e@f@g@h@i@j@k@l@m@n@                              ..F w.          o@p@F q@    e+F F 5.u+        Z.@@F ;@        ;@F '@g       l+F F .@&+      D {@F r@      &+s@F t@        u@'@F D       l+F F i+Z.          6.F 7.            E F F         *+F @@z+        l+F -@      v@F 4.            w@                ",
"            x@y@z@A@B@C@D@E@b@F@G@H@I@J@K@P+L@M@N@l@O@P@                              ..F w.        .+r+F F Q@    e+F F R@          2.F S@            .@F /@      l+F F ^@          T@F :@      2.F ]@            t@F ~@      l+F F U@            6.F 7.            E F F         V@F t+            W@F $.    X@F Y@                              ",
"            Z@`@ #.#+#@###%+$###%#&#*#=#-#;#>#,##+'#)#!#                              ..F F S@S@S@~#F F F 7.      e+F =@            {#F ]#            t@F ^#      l+F s@            /#F (#      _#F :#            =+F -@      l+F <#              6.F 7.            E F F       Z.F F [#            }#F |#    1#F <#2#                            ",
"            3#4#5#6#7#8#9#=+0#a#A+b#c#d#e#f#g#h#i#j#k#l#                              ..F F F F F F s+m#<@        e+F ]@            B+F $@            n#F @@      l+F o#            p#F F q+    w.F q#8.8.8.8.3.>@q#F F       l+F o+              6.F 7.            E F F       ++F (#8.8.8.8.8.r#>@W@F h+      x+F F 4.s# +                      ",
"            t#u#v#w#x#y#&+b#u+z#A#,+B#C#C#C#C#C#D#E#F#G#                              ..F w.                      e+F H#            (#F ^@            I#F F       l+F J#              (#F K#    F F F F F F F F F F F F       l+F ~@              6.F 7.            E F F       L#F F F F F F F F F F F Y.      ,+c+~#F F F '@M#                  ",
"            N#O#P#Q#R#S#o@#.%+%+%+%+T##.T#T##.T###j#U#V#                              ..F w.                      e+F f+            W#F n#            L#F '@      l+F W@            %+F F 2#    F F X#                        l+F m+              6.F 7.            E F F       Y#F -@                                z+Z#`#F F `#                ",
"             $.$+$@$#$$$9#%$&$*$*$*$R@=$q+R@=$q+g+-$;$>$                              ..F w.                      e+F f+            V@F C+            ,$F _#      l+F '$            2#F w.      }@F )$                        l+F m+              6.F !$            E F F       .+F F -+                                    Y#w.F =$              ",
"            ~${$]$^$/$($b#_$9#9#9#9#a#.+9#a#.+:$z#<$[$}$                              ..F w.                      e+F f+            _@F 4.            _#F p+      l+F F |$          %@F V@      ;@F W@                        l+F m+              1$F >@            E F F         x+F Z#                                      x+F r@              ",
"            2$3$4$5$6$7$,+&+8$&+&+&+8$8$&+A#,+#.9$0$a$b$                              ..F w.                      e+F f+            #+{@F e+        c$F +.:$      l+F F V@        2#d$F v@      b#@@F ;@            w@I#      l+F m+              e$F =@            E F F         f$F +.g$            ++#+     +#+          [#+.F /#              ",
"            h$i$j$k$l$m$a#/#n$U@u@u@o$K#=$*$a#z#T#p$q$r$                              ..F w.                      e+F f+              t+F F +@s$&.h+F F l+        l+F t$p@=@e+v@T@@@F u$          v${@F .@/@w$x$y${#F s#      l+F m+              p#z$F A$u$%.%.    E F F           7.F F B$,$B C$7.d+F D     r#F D$E$:#w$s#'$F h+                ",
"            F$G$H$I$J$K$:$u@L$=$q+q+/#o$R@0#:$-+,+M$N$O$                              ..F w.                      e+F f+                f$P$F F F F '$Q$          l+F m+&$S@F F F F >@              =+R$F F F F F (#B$^@      l+F m+                S$B$z$F F F     E F F             v@T$F F F F F ~#H#g     &.<#F F F F F +.U$                  ",
"            V$W$X$&+E E E E E E E E E E E E E E &+Y$Z$`$                                                                                    n$$@f$'+              l+F m+    K#f$C A                     b#g$$.e$S$p#                                                                      R@L#$.Y#=$              #+;+$@v@++T#                    ",
"             %.%+%,+&+&+&+&+&+&+&+&+&+&+&+&+&+&+,+Y$@%#%$%%%i#                                                                                                    l+F m+                                                                                                                                                                          ",
"            &%*%=%-%;%;%;%;%;%;%;%;%;%;%;%;%;%;%-%>%,%'%)%!%9$                                                                                                    l+F m+                                                                                                                                                                          ",
"            ~%{%]%^%/%/%/%/%/%/%/%/%/%/%/%/%/%/%^%(%_%:%<%[%,+                                                                                                    l+F m+                                                                                                                                                                          ",
"            }%|%1%2%2%2%2%2%2%2%2%2%2%2%2%2%2%2%2%3%4%5%p#6%7%                                                                                                    l+F m+                                                                                                                                                                          ",
"                                                                                                                                                                                                                                                                                                                                                  ",
"                                                                                                                                                                                                                                                                                                                                                  "};
