/* XPM */
static char * radio_box_xpm[] = {
"24 24 65 1",
" 	c None",
".	c #003399",
"+	c #D0D0BF",
"@	c #FCFCFC",
"#	c #696989",
"$	c #472E75",
"%	c #343466",
"&	c #9797A8",
"*	c #BABAC0",
"=	c #BDBDC2",
"-	c #9C9CAC",
";	c #6C6D8D",
">	c #7E7E97",
",	c #C8C8C8",
"'	c #CCCDCD",
")	c #CFCFD0",
"!	c #A8A8A8",
"~	c #D7D7D7",
"{	c #8787A1",
"]	c #89BF87",
"^	c #57B751",
"/	c #66C25B",
"(	c #A5D39B",
"_	c #DBDBDA",
":	c #DFDFDF",
"<	c #727393",
"[	c #9898A8",
"}	c #009900",
"|	c #11A40B",
"1	c #2AB51C",
"2	c #47C82F",
"3	c #B3DFA7",
"4	c #E4E4E4",
"5	c #ADADBE",
"6	c #1AAB12",
"7	c #30B921",
"8	c #4BCB32",
"9	c #91E07A",
"0	c #E9E9E9",
"a	c #DCDCE0",
"b	c #BFBFC5",
"c	c #66C25C",
"d	c #41C52B",
"e	c #59D43B",
"f	c #99E680",
"g	c #EEEEEE",
"h	c #DFDFE4",
"i	c #A6D59D",
"j	c #6BE047",
"k	c #C7EFB7",
"l	c #F2F2F3",
"m	c #B6B7C7",
"n	c #DEDEDD",
"o	c #B5E0A9",
"p	c #F3F3F2",
"q	c #F7F7F6",
"r	c #7A7A9B",
"s	c #8989A3",
"t	c #ECEBEC",
"u	c #F3F4F3",
"v	c #F7F7F7",
"w	c #9797B0",
"x	c #747495",
"y	c #AFAFC0",
"z	c #7B7B9C",
"                        ",
"                        ",
"       .....            ",
"    ++@.....@+++++++    ",
"   +@@@@@@@@@@@@@@@@+   ",
"  +@@@@@@@@@@@@@@@@@@+  ",
"  +@@@@@@#$$#@@@@@@@@+  ",
"  +@@@@%#&*=-;%@@@@@@+  ",
"  +@@@%>,,')!~{%@@@@@+  ",
"  +@@@#,,]^/(_:<@@@@@+  ",
"  +@@#[']}|12345#@@@@+  ",
"  +@@$='^|67890a$@@@@+  ",
"  +@@$b!c17defgh$@@@@+  ",
"  +@@#-~i28ejklm#@@@@+  ",
"  +@@@;_no9fkpqr@@@@@+  ",
"  +@@@%s40tluvw%@@@@@+  ",
"  +@@@@%xyahmz%@@@@@@+  ",
"  +@@@@@@#$$#@@@@@@@@+  ",
"  +@@@@@@@@@@@@@@@@@@+  ",
"   +@@@@@@@@@@@@@@@@+   ",
"    ++++++++++++++++    ",
"                        ",
"                        ",
"                        "};
