/* XPM */
static char * ribbon_panel_xpm[] = {
"24 24 5 1",
" 	c None",
".	c #333366",
"+	c #FFFFFF",
"@	c #0066CC",
"#	c #FCFCFC",
"                        ",
"                        ",
"                        ",
"                        ",
"                        ",
" ...................... ",
" .+++++++++++++++++++++ ",
" .+.....++.....++.....+ ",
" .+++++++++++++++++++++ ",
" ...................... ",
" .@@@@@@@@@@@@@@@@@@.## ",
" .@@@@@@@@@@@@@@@@@@.## ",
" .@@++++++++++++++@@.## ",
" .@@++++++++++++++@@.## ",
" .@@++++++++++++++@@.## ",
" .@@++++++++++++++@@.## ",
" .@@@@@@@@@@@@@@@@@@.## ",
" .@@@@@@@@@@@@@@@@@@.## ",
" ....................## ",
"                        ",
"                        ",
"                        ",
"                        ",
"                        "};
