/* XPM */
static char * ribbon_gallery_xpm[] = {
"24 24 4 1",
" 	c None",
".	c #333366",
"+	c #FFFFFF",
"@	c #0066CC",
"                        ",
"                        ",
"                        ",
"                        ",
" ...................... ",
" .+++++++++++++++++++++ ",
" .+.....++.....++.....+ ",
" .+++++++++++++++++++++ ",
" ...................... ",
" .+++++++++++++++++++.+ ",
" .++@@@+@@@+@@@+@@@++.+ ",
" .++@@@+@@@+@@@+@@@++.+ ",
" .++@@@+@@@+@@@+@@@++.+ ",
" .+++++++++++++++++++.+ ",
" .++@@@+@@@+@@@+@@@++.+ ",
" .++@@@+@@@+@@@+@@@++.+ ",
" .++@@@+@@@+@@@+@@@++.+ ",
" .+++++++++++++++++++.+ ",
" ...................... ",
"                        ",
"                        ",
"                        ",
"                        ",
"                        "};
