/* XPM */
static char * py_method_xpm[] = {
"24 24 203 2",
"  	c None",
". 	c #F9B40A",
"+ 	c #D9B004",
"@ 	c #D3B107",
"# 	c #F3B208",
"$ 	c #DCC384",
"% 	c #81D8E8",
"& 	c #88D7DF",
"* 	c #8AD7E3",
"= 	c #89D5E1",
"- 	c #A5D4CD",
"; 	c #DEB105",
"> 	c #D6B107",
", 	c #CFB207",
"' 	c #C8B106",
") 	c #FEB50E",
"! 	c #A8D0CA",
"~ 	c #88D7E0",
"{ 	c #87D8E1",
"] 	c #90D5DA",
"^ 	c #88D3E2",
"/ 	c #F1AD07",
"( 	c #CCB205",
"_ 	c #CEB106",
": 	c #D3B106",
"< 	c #D1B207",
"[ 	c #E7AF08",
"} 	c #E7C478",
"| 	c #79D9E4",
"1 	c #80D6DC",
"2 	c #8DD6E0",
"3 	c #88D9E4",
"4 	c #92D2D8",
"5 	c #E2B106",
"6 	c #D1B407",
"7 	c #CFB206",
"8 	c #CEB206",
"9 	c #C8B405",
"0 	c #F7B20A",
"a 	c #ACCFCB",
"b 	c #93D5E4",
"c 	c #87D7E3",
"d 	c #87D7E2",
"e 	c #7FD8E3",
"f 	c #B9D0D6",
"g 	c #F1B20A",
"h 	c #CBB107",
"i 	c #D2B207",
"j 	c #CFB306",
"k 	c #CCB306",
"l 	c #DAB106",
"m 	c #87D6E3",
"n 	c #88D7E4",
"o 	c #85D7E5",
"p 	c #8CD6E4",
"q 	c #CECB93",
"r 	c #DBB006",
"s 	c #D0B307",
"t 	c #CBB306",
"u 	c #D0B206",
"v 	c #F6AF07",
"w 	c #C7CDC9",
"x 	c #83D7E4",
"y 	c #F0B306",
"z 	c #E0AF06",
"A 	c #D7B205",
"B 	c #B8D4BC",
"C 	c #ADD1C7",
"D 	c #AAD2C6",
"E 	c #CECA82",
"F 	c #B98A8A",
"G 	c #FF6300",
"H 	c #F34100",
"I 	c #EC3700",
"J 	c #EA3A00",
"K 	c #F84900",
"L 	c #B98AAB",
"M 	c #5D85EE",
"N 	c #6A83E4",
"O 	c #E99C5C",
"P 	c #FF5902",
"Q 	c #E93600",
"R 	c #EA3800",
"S 	c #E93500",
"T 	c #EE3C00",
"U 	c #E79370",
"V 	c #8084D6",
"W 	c #6085EC",
"X 	c #6483E3",
"Y 	c #5785EB",
"Z 	c #8B86CA",
"` 	c #EF3F00",
" .	c #EA3700",
"..	c #EB3800",
"+.	c #E83700",
"@.	c #EA3600",
"#.	c #F84700",
"$.	c #6385E6",
"%.	c #6684ED",
"&.	c #6683EB",
"*.	c #6184EA",
"=.	c #5682EC",
"-.	c #D8919F",
";.	c #EA3900",
">.	c #E63600",
",.	c #F54800",
"'.	c #CF8CA1",
").	c #6F84E9",
"!.	c #6284EA",
"~.	c #6483E8",
"{.	c #6A84E6",
"].	c #7C87CE",
"^.	c #FA5200",
"/.	c #E83500",
"(.	c #FD6303",
"_.	c #7084E2",
":.	c #6485E6",
"<.	c #6484E9",
"[.	c #6482EA",
"}.	c #8284D3",
"|.	c #ED3F00",
"1.	c #F54700",
"2.	c #B88BA2",
"3.	c #5B82F0",
"4.	c #5E83EB",
"5.	c #6D83E6",
"6.	c #A08AB3",
"7.	c #EA3400",
"8.	c #E83400",
"9.	c #7122C2",
"0.	c #D2936D",
"a.	c #C7938B",
"b.	c #D59669",
"c.	c #EF3C00",
"d.	c #F95902",
"e.	c #F2585B",
"f.	c #E94079",
"g.	c #E93F73",
"h.	c #E94089",
"i.	c #EA4089",
"j.	c #EB3E89",
"k.	c #2617E0",
"l.	c #6426D1",
"m.	c #6425D4",
"n.	c #6827D1",
"o.	c #7228CF",
"p.	c #8833A8",
"q.	c #863399",
"r.	c #D25459",
"s.	c #FA5D00",
"t.	c #FF8414",
"u.	c #EA4297",
"v.	c #EB4187",
"w.	c #E94084",
"x.	c #EA4088",
"y.	c #EA4085",
"z.	c #ED4194",
"A.	c #571ECC",
"B.	c #2B17E0",
"C.	c #2717DD",
"D.	c #2917DE",
"E.	c #2816DF",
"F.	c #2916DF",
"G.	c #2415E7",
"H.	c #4617C9",
"I.	c #FD6549",
"J.	c #EA408C",
"K.	c #EB4088",
"L.	c #E93F85",
"M.	c #EA4083",
"N.	c #EA4080",
"O.	c #EB44A5",
"P.	c #2E14DF",
"Q.	c #2A18E3",
"R.	c #2A17DB",
"S.	c #2C17DD",
"T.	c #2C16DF",
"U.	c #2E18D3",
"V.	c #FD6B36",
"W.	c #E8438A",
"X.	c #E8407E",
"Y.	c #EB408D",
"Z.	c #EA4093",
"`.	c #EA4091",
" +	c #EA42A3",
".+	c #6D1EBB",
"++	c #1E15DD",
"@+	c #3016E0",
"#+	c #2F16E0",
"$+	c #2C17E0",
"%+	c #2B16DB",
"&+	c #3B17C8",
"*+	c #F64D56",
"=+	c #EE3F89",
"-+	c #EC4582",
";+	c #EC4377",
">+	c #EC4272",
",+	c #EB4180",
"'+	c #2716D8",
")+	c #3F1CD5",
"!+	c #3F1BD6",
"~+	c #3819C7",
"{+	c #5D1FC2",
"                                                ",
"                                                ",
"              . + @ # $ % & * = -               ",
"              ; > , ' ) ! ~ { ] ^               ",
"            / ( _ : < [ } | 1 2 3 4             ",
"            5 6 7 8 9 0   a b c d e f           ",
"          g h i j k l       m n o p q           ",
"            r s t u v       w x c &             ",
"              y z A         B C D E             ",
"                                        F       ",
"    G H I J K                       L M N O     ",
"    P Q R S T                   U V W X Y Z     ",
"    `  ...+.@.#.                  $.%.&.*.=.-.  ",
"    ;. . .>.,.                    '.).!.~.{.].  ",
"  ^...Q I /.(.                      _.:.<.[.}.  ",
"    |.R I 1.                        2.3.4.5.6.  ",
"    ^.7.8.                  9.        0.a.b.    ",
"      c.d.e.f.g.h.i.j.      k.l.m.n.o.p.q.r.    ",
"      s.t.u.v.w.x.y.z.    A.B.C.D.E.F.G.H.      ",
"        I.J.K.L.M.N.O.    P.Q.R.R.S.T.U.        ",
"        V.W.X.Y.Z.`. +    .+++@+#+$+%+&+        ",
"          *+=+-+;+>+,+      '+)+!+~+{+          ",
"                                                ",
"                                                "};
