/* XPM */
static char * uncheked_disabled_xpm[] = {
"16 16 2 1",
" 	c None",
".	c #C5C5C5",
"                ",
"                ",
"  ............  ",
"  ............  ",
"  ..        ..  ",
"  ..        ..  ",
"  ..        ..  ",
"  ..        ..  ",
"  ..        ..  ",
"  ..        ..  ",
"  ..        ..  ",
"  ..        ..  ",
"  ............  ",
"  ............  ",
"                ",
"                "};
